HFT_Modules/index_arb_dump.vcd
$date
	Mon Apr 20 15:27:16 2026
$end
$version
	Icarus Verilog
$end
$timescale
	100ps
$end
$scope module index_arb_engine_tb $end
$var wire 162 ! trade_out [161:0] $end
$var wire 64 " index_monitor [63:0] $end
$var parameter 32 # AW $end
$var parameter 32 $ FRAC $end
$var parameter 32 % N_COMP $end
$var parameter 32 & SYMW $end
$var parameter 32 ' WW $end
$var reg 1 ( clk $end
$var reg 1 ) rst_n $end
$var reg 64 * threshold [63:0] $end
$var reg 138 + tob_in [137:0] $end
$var reg 9 , wt_wr_addr [8:0] $end
$var reg 32 - wt_wr_data [31:0] $end
$var reg 1 . wt_wr_en $end
$var integer 32 / fail_count [31:0] $end
$var integer 32 0 fb [31:0] $end
$scope function q_to_cents $end
$upscope $end
$scope module dut $end
$var wire 1 1 accum_en $end
$var wire 1 2 actual_en $end
$var wire 1 ( clk $end
$var wire 1 3 in_is_component $end
$var wire 1 4 in_is_index $end
$var wire 138 5 in_tob [137:0] $end
$var wire 1 6 in_two_sided $end
$var wire 32 7 lt_weight [31:0] $end
$var wire 64 8 out_index [63:0] $end
$var wire 1 9 ready $end
$var wire 1 ) rst_n $end
$var wire 64 : threshold [63:0] $end
$var wire 9 ; wt_wr_addr [8:0] $end
$var wire 32 < wt_wr_data [31:0] $end
$var wire 1 . wt_wr_en $end
$var wire 1 = w_b_wen $end
$var wire 32 > w_b_wdata [31:0] $end
$var wire 32 ? w_b_rdata [31:0] $end
$var wire 2 @ w_b_addr [1:0] $end
$var wire 32 A w_a_rdata [31:0] $end
$var wire 2 B w_a_addr [1:0] $end
$var wire 64 C pp3 [63:0] $end
$var wire 64 D pp2 [63:0] $end
$var wire 64 E pp1 [63:0] $end
$var wire 1 F m_b_wen $end
$var wire 32 G m_b_wdata [31:0] $end
$var wire 32 H m_b_rdata [31:0] $end
$var wire 2 I m_b_addr [1:0] $end
$var wire 32 J m_a_rdata [31:0] $end
$var wire 2 K m_a_addr [1:0] $end
$var wire 33 L lt_delta [32:0] $end
$var wire 9 M in_sym [8:0] $end
$var wire 32 N in_new_mid [31:0] $end
$var parameter 32 O AW $end
$var parameter 32 P FRAC $end
$var parameter 9 Q IDX_SYM $end
$var parameter 32 R MUL_STAGES $end
$var parameter 32 S N_COMPONENTS $end
$var parameter 32 T RAM_ADDR_W $end
$var parameter 34 U RAM_DEPTH $end
$var parameter 32 V SHIFT $end
$var parameter 32 W SYMW $end
$var parameter 32 X WW $end
$var reg 64 Y abs_spread [63:0] $end
$var reg 32 Z actual_mid [31:0] $end
$var reg 64 [ actual_q [63:0] $end
$var reg 2 \ clear_addr_r [1:0] $end
$var reg 64 ] index_accum [63:0] $end
$var reg 1 ^ lt_is_component $end
$var reg 1 _ lt_is_index $end
$var reg 32 ` lt_new_mid [31:0] $end
$var reg 9 a lt_sym [8:0] $end
$var reg 1 b lt_valid $end
$var reg 1 c mp1_is_component $end
$var reg 1 d mp1_is_index $end
$var reg 64 e mp1_mcand [63:0] $end
$var reg 64 f mp1_mplier [63:0] $end
$var reg 32 g mp1_new_mid [31:0] $end
$var reg 64 h mp1_sum [63:0] $end
$var reg 1 i mp1_valid $end
$var reg 1 j mp2_is_component $end
$var reg 1 k mp2_is_index $end
$var reg 64 l mp2_mcand [63:0] $end
$var reg 64 m mp2_mplier [63:0] $end
$var reg 32 n mp2_new_mid [31:0] $end
$var reg 64 o mp2_sum [63:0] $end
$var reg 1 p mp2_valid $end
$var reg 1 q mp3_is_component $end
$var reg 1 r mp3_is_index $end
$var reg 32 s mp3_new_mid [31:0] $end
$var reg 64 t mp3_product [63:0] $end
$var reg 1 u mp3_valid $end
$var reg 1 v mp3_valid_d $end
$var reg 32 w old_mid_bypassed [31:0] $end
$var reg 162 x out_trade [161:0] $end
$var reg 1 y s1_is_component $end
$var reg 1 z s1_is_index $end
$var reg 64 { s1_mcand [63:0] $end
$var reg 64 | s1_mplier [63:0] $end
$var reg 32 } s1_new_mid [31:0] $end
$var reg 1 ~ s1_valid $end
$var reg 64 !" spread [63:0] $end
$var reg 1 "" state_r $end
$var reg 1 #" trade_dir $end
$var reg 1 $" trade_fire $end
$var reg 32 %" wr_bp_mid [31:0] $end
$var reg 9 &" wr_bp_sym [8:0] $end
$var reg 1 '" wr_bp_valid $end
$scope module old_mid_ram $end
$var wire 2 (" a_addr [1:0] $end
$var wire 2 )" b_addr [1:0] $end
$var wire 32 *" b_wdata [31:0] $end
$var wire 1 F b_wen $end
$var wire 1 ( clk $end
$var wire 1 ) rst_n $end
$var parameter 32 +" ADDR_W $end
$var parameter 32 ," DATA_W $end
$var parameter 34 -" DEPTH $end
$var reg 32 ." a_rdata [31:0] $end
$var reg 32 /" b_rdata [31:0] $end
$scope begin $ivl_for_loop0 $end
$var integer 32 0" i [31:0] $end
$upscope $end
$upscope $end
$scope module weight_ram $end
$var wire 2 1" a_addr [1:0] $end
$var wire 2 2" b_addr [1:0] $end
$var wire 32 3" b_wdata [31:0] $end
$var wire 1 = b_wen $end
$var wire 1 ( clk $end
$var wire 1 ) rst_n $end
$var parameter 32 4" ADDR_W $end
$var parameter 32 5" DATA_W $end
$var parameter 34 6" DEPTH $end
$var reg 32 7" a_rdata [31:0] $end
$var reg 32 8" b_rdata [31:0] $end
$scope begin $ivl_for_loop0 $end
$var integer 32 9" i [31:0] $end
$upscope $end
$upscope $end
$upscope $end
$scope begin $unm_blk_14 $end
$var reg 64 :" saved_idx [63:0] $end
$upscope $end
$scope task load_weight $end
$upscope $end
$scope task pr $end
$upscope $end
$scope task send_tob $end
$upscope $end
$upscope $end
$enddefinitions $end
$comment Show the parameter values. $end
$dumpall
b100 6"
b100000 5"
b10 4"
b100 -"
b100000 ,"
b10 +"
b100000 X
b1001 W
b1011 V
b100 U
b10 T
b100 S
b11 R
b111110100 Q
b10100 P
b1000000 O
b100000 '
b1001 &
b100 %
b10100 $
b1000000 #
$end
#0
$dumpvars
bx :"
b100 9"
bx 8"
bx 7"
b0 3"
bx 2"
b0 1"
b100 0"
bx /"
bx ."
bx *"
bx )"
b0 ("
x'"
bx &"
bx %"
x$"
x#"
x""
bx !"
x~
bx }
bx |
bx {
xz
xy
bx x
bx w
xv
xu
bx t
bx s
xr
xq
xp
bx o
bx n
bx m
bx l
xk
xj
xi
bx h
bx g
bx f
bx e
xd
xc
xb
bx a
bx `
x_
x^
bx ]
bx \
b0xxxxxxxxxxxxxxxxxxxxxxxxxxxxxxxx00000000000000000000 [
bx Z
bx Y
b0 N
b0 M
bx L
b0 K
bx J
bx I
bx H
bx G
xF
bx E
bx D
bx C
b0 B
bx A
bx @
bx ?
b0 >
x=
b0 <
b0 ;
b0 :
x9
bx 8
bx 7
06
b0 5
04
03
x2
x1
bx 0
b0 /
0.
b0 -
b0 ,
b0 +
b0 *
0)
0(
bx "
bx !
$end
#20
1=
1F
b0 L
b0 E
b0 D
b0 C
02
01
b0 @
b0 2"
b0 I
b0 )"
09
b0 G
b0 *"
b0 w
1#"
0$"
b0 Y
b0 !"
b0 [
b0 7
b0 A
b0 7"
b0 ?
b0 8"
b0 J
b0 ."
b0 H
b0 /"
b0 \
0""
b0 `
b0 a
0^
0_
0b
0'"
b0 %"
b0 &"
b0 |
b0 {
b0 }
0y
0z
0~
b0 f
b0 e
b0 h
b0 g
0c
0d
0i
b0 m
b0 l
b0 o
b0 n
0j
0k
0p
b0 t
b0 s
0q
0r
0u
b0 Z
b0 "
b0 8
b0 ]
0v
b0 !
b0 x
1(
#40
0(
#60
1(
#80
0(
#100
1(
#120
0(
#140
1(
#150
1)
#160
0(
#180
b1 @
b1 2"
b1 I
b1 )"
b1 \
b10000000000000000000000000000000000000000000000000000000000000000000000000000000000000000000000000000000000000000000000000000000000000000000000000000000000000000 !
b10000000000000000000000000000000000000000000000000000000000000000000000000000000000000000000000000000000000000000000000000000000000000000000000000000000000000000 x
1(
#200
0(
#220
b10 @
b10 2"
b10 I
b10 )"
b10 \
1(
#230
b10000000000000000000 -
b10000000000000000000 <
1.
#240
0(
#260
b11 @
b11 2"
b11 I
b11 )"
b11 \
1(
#270
b1000000000000000000 -
b1000000000000000000 <
b1 ,
b1 ;
1.
#280
0(
#300
b1 @
b1 2"
b1000000000000000000 >
b1000000000000000000 3"
b0 I
b0 )"
0F
19
1""
1(
#310
b10 @
b10 2"
b100110011001100110 >
b100110011001100110 3"
b100110011001100110 -
b100110011001100110 <
b10 ,
b10 ;
1.
#320
0(
#340
1(
#350
b11 @
b11 2"
b11001100110011010 >
b11001100110011010 3"
b11001100110011010 -
b11001100110011010 <
b11 ,
b11 ;
1.
#360
0(
#380
1(
#390
0=
b110010000000000000000000000 *
b110010000000000000000000000 :
0.
#400
0(
#420
b11001100110011010 ?
b11001100110011010 8"
1(
#440
0(
#460
1(
#470
13
b11101010011000 N
16
b100000000000000000000000000011101000110100000000000000000000000000011001000000000000000000001110101111110000000000000000000000000001100100 +
b100000000000000000000000000011101000110100000000000000000000000000011001000000000000000000001110101111110000000000000000000000000001100100 5
b0 0
#480
0(
#500
b11101010011000 G
b11101010011000 *"
b11101010011000 L
1F
b11101010011000 `
1^
1b
1(
#510
03
b0 N
06
b0 +
b0 5
#520
0(
#540
b11101010011000 w
b0 G
b0 *"
b111111111111111111100010101101000 L
0F
b11101010011000 {
b11101010011000 }
1y
1~
1'"
b11101010011000 %"
b0 `
0^
0b
1(
#560
0(
#580
b11101010011000 J
b11101010011000 ."
b11101010011000 H
b11101010011000 /"
0'"
b0 %"
b0 {
b0 }
0y
0~
b1110101001100000000000000 e
b11101010011000 g
1c
1i
1(
#600
0(
#620
b111010100110000000000000000000000000 l
b11101010011000 n
1j
1p
b0 e
b0 g
0c
0i
1(
#640
0(
#660
11
b0 l
b0 n
0j
0p
b11101010011000 s
1q
1u
1(
#680
0(
#700
01
1v
b0 s
0q
0u
1(
#710
13
b100111000100000 N
16
b1 B
b1 1"
b1 K
b1 ("
b1 M
b100000000100000000000000000100110110111100000000000000000000000000011001000000000000000000010011101000010000000000000000000000000001100100 +
b100000000100000000000000000100110110111100000000000000000000000000011001000000000000000000010011101000010000000000000000000000000001100100 5
#720
0(
#740
b1 I
b1 )"
b100111000100000 G
b100111000100000 *"
b100111000100000 L
b0 w
1F
b0 J
b0 ."
b100111000100000 `
b1 a
1^
1b
0v
1(
#750
03
b0 N
b0 B
b0 1"
b0 K
b0 ("
06
b0 M
b0 +
b0 5
#760
0(
#780
b0 I
b0 )"
b0 G
b0 *"
b111111111111111111100010101101000 L
0F
b11101010011000 w
b100111000100000 {
b100111000100000 }
1y
1~
1'"
b100111000100000 %"
b1 &"
b0 `
b0 a
0^
0b
b0 H
b0 /"
b11101010011000 J
b11101010011000 ."
1(
#800
0(
#820
b11101010011000 H
b11101010011000 /"
0'"
b0 %"
b0 &"
b0 {
b0 }
0y
0~
b10011100010000000000000000 e
b100111000100000 g
1c
1i
1(
#840
0(
#860
b1001110001000000000000000000000000000 l
b100111000100000 n
1j
1p
b0 e
b0 g
0c
0i
1(
#880
0(
#900
11
b0 l
b0 n
0j
0p
b100111000100000 s
1q
1u
1(
#920
0(
#940
01
1v
b0 s
0q
0u
1(
#950
13
b10011100010000 N
16
b10 B
b10 1"
b10 K
b10 ("
b10 M
b100000001000000000000000000010011010101100000000000000000000000000011001000000000000000000001001110111010000000000000000000000000001100100 +
b100000001000000000000000000010011010101100000000000000000000000000011001000000000000000000001001110111010000000000000000000000000001100100 5
#960
0(
#980
b10 I
b10 )"
b10011100010000 G
b10011100010000 *"
b10011100010000 L
b0 w
1F
b100110011001100110 7
b100110011001100110 A
b100110011001100110 7"
b0 J
b0 ."
b10011100010000 `
b10 a
1^
1b
0v
1(
#990
03
b0 N
b0 B
b0 1"
b0 K
b0 ("
06
b0 M
b0 +
b0 5
#1000
0(
#1020
b111110011111000001100000 E
b0 I
b0 )"
b0 G
b0 *"
b111111111111111111100010101101000 L
0F
b11101010011000 w
b100110011001100110 |
b10011100010000 {
b10011100010000 }
1y
1~
1'"
b10011100010000 %"
b10 &"
b0 `
b0 a
0^
0b
b0 H
b0 /"
b11101010011000 J
b11101010011000 ."
b0 7
b0 A
b0 7"
1(
#1040
0(
#1060
b1011100110001100000000000000000 D
b11101010011000 H
b11101010011000 /"
0'"
b0 %"
b0 &"
b0 |
b0 E
b0 {
b0 }
0y
0~
b1001100 f
b1001110001000000000000000 e
b111110011111000001100000 h
b10011100010000 g
1c
1i
1(
#1080
0(
#1100
b100111000100000000000000000000000000 l
b1011101101111111111000001100000 o
b10011100010000 n
1j
1p
b0 f
b0 D
b0 e
b0 h
b0 g
0c
0i
1(
#1120
0(
#1140
11
b0 l
b0 o
b0 n
0j
0p
b1011101101111111111000001100000 t
b10011100010000 s
1q
1u
1(
#1160
0(
#1180
01
b1011101101111111111000001100000 Y
b1011101101111111111000001100000 !"
1v
b1011101101111111111000001100000 "
b1011101101111111111000001100000 8
b1011101101111111111000001100000 ]
b0 t
b0 s
0q
0u
1(
#1190
13
b1001110001000 N
16
b11 B
b11 1"
b11 K
b11 ("
b11 M
b100000001100000000000000000001001100100100000000000000000000000000011001000000000000000000000100111110110000000000000000000000000001100100 +
b100000001100000000000000000001001100100100000000000000000000000000011001000000000000000000000100111110110000000000000000000000000001100100 5
#1200
0(
#1220
b11 I
b11 )"
b1001110001000 G
b1001110001000 *"
b1001110001000 L
b0 w
1F
b11001100110011010 7
b11001100110011010 A
b11001100110011010 7"
b0 J
b0 ."
b1001110001000 `
b11 a
1^
1b
0v
b10000000000000000000000000000000001011101101111111111000001100000000000000000000000000000000000000101110110111111111100000110000000000000000000000000000000000000 !
b10000000000000000000000000000000001011101101111111111000001100000000000000000000000000000000000000101110110111111111100000110000000000000000000000000000000000000 x
1(
#1230
03
b0 N
b0 B
b0 1"
b0 K
b0 ("
06
b0 M
b0 +
b0 5
#1240
0(
#1260
b111110100011111010000 E
b0 I
b0 )"
b0 G
b0 *"
b111111111111111111100010101101000 L
0F
b11101010011000 w
b11001100110011010 |
b1001110001000 {
b1001110001000 }
1y
1~
1'"
b1001110001000 %"
b11 &"
b0 `
b0 a
0^
0b
b0 H
b0 /"
b11101010011000 J
b11101010011000 ."
b0 7
b0 A
b0 7"
1(
#1280
0(
#1300
b11111001000001100000000000000 D
b11101010011000 H
b11101010011000 /"
0'"
b0 %"
b0 &"
b0 |
b0 E
b0 {
b0 }
0y
0~
b110011 f
b100111000100000000000000 e
b111110100011111010000 h
b1001110001000 g
1c
1i
1(
#1320
0(
#1340
b10011100010000000000000000000000000 l
b11111010000000000011111010000 o
b1001110001000 n
1j
1p
b0 f
b0 D
b0 e
b0 h
b0 g
0c
0i
1(
#1360
0(
#1380
11
b0 l
b0 o
b0 n
0j
0p
b11111010000000000011111010000 t
b1001110001000 s
1q
1u
1(
#1400
0(
#1420
01
b1111100111111111111100000110000 Y
b1111100111111111111100000110000 !"
1v
b1111100111111111111100000110000 "
b1111100111111111111100000110000 8
b1111100111111111111100000110000 ]
b0 t
b0 s
0q
0u
1(
#1430
14
b11111001111 N
16
b111110100 M
b111111010000000000000000000000011110011101000000000000000000000000011001000000000000000000000010000000000100000000000000000000000001100100 +
b111111010000000000000000000000011110011101000000000000000000000000011001000000000000000000000010000000000100000000000000000000000001100100 5
b1 0
b1 /
#1440
0(
#1460
b11111001111 G
b11111001111 *"
b111111111111111111100110100110111 L
b11111001111 `
b111110100 a
1_
1b
0v
b10000000000000000000000000000000001111100111111111111100000110000000000000000000000000000000000000111110011111111111110000011000000000000000000000000000000000000 !
b10000000000000000000000000000000001111100111111111111100000110000000000000000000000000000000000000111110011111111111110000011000000000000000000000000000000000000 x
1(
#1470
b0 N
03
06
04
b0 M
b0 +
b0 5
#1480
0(
#1500
b0 G
b0 *"
b111111111111111111100010101101000 L
b1111111111111111111111111111111111111111111111111100110100110111 {
b11111001111 }
1z
1~
b11111001111 %"
b111110100 &"
b0 `
b0 a
0_
0b
1(
#1520
0(
#1540
b0 %"
b0 &"
b0 {
b0 }
0z
0~
b1111111111111111111111111111111111111110011010011011100000000000 e
b11111001111 g
1d
1i
1(
#1560
0(
#1580
b1111111111111111111111111111001101001101110000000000000000000000 l
b11111001111 n
1k
1p
b0 e
b0 g
0d
0i
1(
#1600
0(
#1620
12
b0 l
b0 n
0k
0p
b11111001111 s
1r
1u
1(
#1640
0(
#1660
02
b11111111100000110000 Y
b11111111100000110000 !"
b1111100111100000000000000000000 [
1v
b11111001111 Z
b0 s
0r
0u
1(
#1680
0(
#1700
0v
b10000000000000000000000000000000000000000000011111111100000110000000000000000000000000000000000000111110011111111111110000011000000000000000000000000011111001111 !
b10000000000000000000000000000000000000000000011111111100000110000000000000000000000000000000000000111110011111111111110000011000000000000000000000000011111001111 x
1(
#1720
0(
#1740
1(
#1760
0(
#1780
1(
#1800
0(
#1820
1(
#1830
13
b11111010000000 N
16
b100000000000000000000000000011111000011100000000000000000000000000011001000000000000000000001111101110010000000000000000000000000001100100 +
b100000000000000000000000000011111000011100000000000000000000000000011001000000000000000000001111101110010000000000000000000000000001100100 5
#1840
0(
#1860
b11111010000000 G
b11111010000000 *"
b1111101000 L
1F
b11111010000000 `
1^
1b
1(
#1870
03
b0 N
06
b0 +
b0 5
#1880
0(
#1900
b11111010000000 w
b0 G
b0 *"
b111111111111111111100000110000000 L
0F
b1111101000 {
b11111010000000 }
1y
1~
1'"
b11111010000000 %"
b0 `
0^
0b
1(
#1920
0(
#1940
b11111010000000 J
b11111010000000 ."
b11111010000000 H
b11111010000000 /"
0'"
b0 %"
b0 {
b0 }
0y
0~
b111110100000000000000 e
b11111010000000 g
1c
1i
1(
#1960
0(
#1980
b11111010000000000000000000000000 l
b11111010000000 n
1j
1p
b0 e
b0 g
0c
0i
1(
#2000
0(
#2020
11
b0 l
b0 n
0j
0p
b11111010000000 s
1q
1u
1(
#2040
0(
#2060
01
1v
b0 s
0q
0u
1(
#2070
14
b11111001111 N
16
b111110100 M
b111111010000000000000000000000011111000101000000000000000000000000011001000000000000000000000001111101100100000000000000000000000001100100 +
b111111010000000000000000000000011111000101000000000000000000000000011001000000000000000000000001111101100100000000000000000000000001100100 5
b10 0
b10 /
#2080
0(
#2100
b11111001111 G
b11111001111 *"
b111111111111111111100100101001111 L
b11111001111 `
b111110100 a
1_
1b
0v
1(
#2110
b0 N
03
06
04
b0 M
b0 +
b0 5
#2120
0(
#2140
b0 G
b0 *"
b111111111111111111100000110000000 L
b1111111111111111111111111111111111111111111111111100100101001111 {
b11111001111 }
1z
1~
b11111001111 %"
b111110100 &"
b0 `
b0 a
0_
0b
1(
#2160
0(
#2180
b0 %"
b0 &"
b0 {
b0 }
0z
0~
b1111111111111111111111111111111111111110010010100111100000000000 e
b11111001111 g
1d
1i
1(
#2200
0(
#2220
b1111111111111111111111111111001001010011110000000000000000000000 l
b11111001111 n
1k
1p
b0 e
b0 g
0d
0i
1(
#2240
0(
#2260
12
b0 l
b0 n
0k
0p
b11111001111 s
1r
1u
1(
#2280
0(
#2300
02
1v
b0 s
0r
0u
1(
#2320
0(
#2340
0v
1(
#2360
0(
#2380
1(
#2400
0(
#2420
1(
#2440
0(
#2460
1(
#2470
13
b100011001010000 N
16
b1 B
b1 1"
b1 K
b1 ("
b1 M
b100000000100000000000000000100010111101100000000000000000000000000011001000000000000000000010001101011010000000000000000000000000001100100 +
b100000000100000000000000000100010111101100000000000000000000000000011001000000000000000000010001101011010000000000000000000000000001100100 5
#2480
0(
#2500
b1 I
b1 )"
b100011001010000 G
b100011001010000 *"
b111111111111111111111100000110000 L
b100111000100000 w
1F
b100111000100000 J
b100111000100000 ."
b100011001010000 `
b1 a
1^
1b
1(
#2510
03
b0 N
b0 B
b0 1"
b0 K
b0 ("
06
b0 M
b0 +
b0 5
#2520
0(
#2540
b0 I
b0 )"
b0 G
b0 *"
b111111111111111111100000110000000 L
0F
b11111010000000 w
b1111111111111111111111111111111111111111111111111111100000110000 {
b100011001010000 }
1y
1~
1'"
b100011001010000 %"
b1 &"
b0 `
b0 a
0^
0b
b100111000100000 H
b100111000100000 /"
b11111010000000 J
b11111010000000 ."
1(
#2560
0(
#2580
b11111010000000 H
b11111010000000 /"
0'"
b0 %"
b0 &"
b0 {
b0 }
0y
0~
b1111111111111111111111111111111111111111110000011000000000000000 e
b100011001010000 g
1c
1i
1(
#2600
0(
#2620
b1111111111111111111111111111111000001100000000000000000000000000 l
b100011001010000 n
1j
1p
b0 e
b0 g
0c
0i
1(
#2640
0(
#2660
11
b0 l
b0 n
0j
0p
b100011001010000 s
1q
1u
1(
#2680
0(
#2700
01
1v
b0 s
0q
0u
1(
#2710
b1011101110000 N
b10 B
b10 1"
b10 K
b10 ("
b10 M
b100000001000000000000000000010111011100000000000000000000000000000011001000000000000000000000000000000000000000000000000000000000000000000 +
b100000001000000000000000000010111011100000000000000000000000000000011001000000000000000000000000000000000000000000000000000000000000000000 5
b1111100111111111111100000110000 :"
b11 0
b11 /
#2720
0(
#2740
b10 I
b10 )"
b1011101110000 G
b1011101110000 *"
b111111111111111111111000001100000 L
b10011100010000 w
b100110011001100110 7
b100110011001100110 A
b100110011001100110 7"
b10011100010000 J
b10011100010000 ."
b1011101110000 `
b10 a
1b
0v
1(
#2750
b0 N
b0 B
b0 1"
b0 K
b0 ("
b0 M
b0 +
b0 5
#2760
0(
#2780
b1111111111111111111111111111111111111111100111000000011001000000 E
b0 I
b0 )"
b0 G
b0 *"
b111111111111111111100000110000000 L
b11111010000000 w
b100110011001100110 |
b1111111111111111111111111111111111111111111111111111000001100000 {
b1011101110000 }
1~
b1011101110000 %"
b10 &"
b0 `
b0 a
0b
b10011100010000 H
b10011100010000 /"
b11111010000000 J
b11111010000000 ."
b0 7
b0 A
b0 7"
1(
#2800
0(
#2820
b1111111111111111111111111111111111011010111001000000000000000000 D
b11111010000000 H
b11111010000000 /"
b0 %"
b0 &"
b0 |
b0 E
b0 {
b0 }
0~
b1001100 f
b1111111111111111111111111111111111111111100000110000000000000000 e
b1111111111111111111111111111111111111111100111000000011001000000 h
b1011101110000 g
1i
1(
#2840
0(
#2860
b1111111111111111111111111111110000011000000000000000000000000000 l
b1111111111111111111111111111111111011010100000000000011001000000 o
b1011101110000 n
1p
b0 f
b0 D
b0 e
b0 h
b0 g
0i
1(
#2880
0(
#2900
b0 l
b0 o
b0 n
0p
b1111111111111111111111111111111111011010100000000000011001000000 t
b1011101110000 s
1u
1(
#2920
0(
#2940
1v
b0 t
b0 s
0u
1(
#2950
14
b11111001111 N
16
b111110100 M
b111111010000000000000000000000011111000101000000000000000000000000011001000000000000000000000001111101100100000000000000000000000001100100 +
b111111010000000000000000000000011111000101000000000000000000000000011001000000000000000000000001111101100100000000000000000000000001100100 5
#2960
0(
#2980
b11111001111 G
b11111001111 *"
b111111111111111111100100101001111 L
b11111001111 `
b111110100 a
1_
1b
0v
1(
#2990
b0 N
03
06
04
b0 M
b0 +
b0 5
#3000
0(
#3020
b0 G
b0 *"
b111111111111111111100000110000000 L
b1111111111111111111111111111111111111111111111111100100101001111 {
b11111001111 }
1z
1~
b11111001111 %"
b111110100 &"
b0 `
b0 a
0_
0b
1(
#3040
0(
#3060
b0 %"
b0 &"
b0 {
b0 }
0z
0~
b1111111111111111111111111111111111111110010010100111100000000000 e
b11111001111 g
1d
1i
1(
#3080
0(
#3100
b1111111111111111111111111111001001010011110000000000000000000000 l
b11111001111 n
1k
1p
b0 e
b0 g
0d
0i
1(
#3120
0(
#3140
12
b0 l
b0 n
0k
0p
b11111001111 s
1r
1u
1(
#3160
0(
#3180
02
1v
b0 s
0r
0u
1(
#3200
0(
#3220
0v
1(
#3240
0(
#3260
1(
#3280
0(
#3300
1(
#3320
0(
#3340
1(
#3350
13
b1001110111010 N
16
b11 B
b11 1"
b11 K
b11 ("
b11 M
b100000001100000000000000000001001110001000000000000000000000000000011001000000000000000000000100111110110000000000000000000000000001100100 +
b100000001100000000000000000001001110001000000000000000000000000000011001000000000000000000000100111110110000000000000000000000000001100100 5
b10100000000000000000000 *
b10100000000000000000000 :
#3360
0(
#3380
b11 I
b11 )"
b1001110111010 G
b1001110111010 *"
b110010 L
b1001110001000 w
1F
b11001100110011010 7
b11001100110011010 A
b11001100110011010 7"
b1001110001000 J
b1001110001000 ."
b1001110111010 `
b11 a
1^
1b
1(
#3390
03
b0 N
b0 B
b0 1"
b0 K
b0 ("
06
b0 M
b0 +
b0 5
#3400
0(
#3420
b101000000010100 E
b0 I
b0 )"
b0 G
b0 *"
b111111111111111111100000110000000 L
0F
b11111010000000 w
b11001100110011010 |
b110010 {
b1001110111010 }
1y
1~
1'"
b1001110111010 %"
b11 &"
b0 `
b0 a
0^
0b
b1001110001000 H
b1001110001000 /"
b11111010000000 J
b11111010000000 ."
b0 7
b0 A
b0 7"
1(
#3440
0(
#3460
b10011111011000000000000 D
b11111010000000 H
b11111010000000 /"
0'"
b0 %"
b0 &"
b0 |
b0 E
b0 {
b0 }
0y
0~
b110011 f
b11001000000000000 e
b101000000010100 h
b1001110111010 g
1c
1i
1(
#3480
0(
#3500
b1100100000000000000000000000 l
b10100000000000000010100 o
b1001110111010 n
1j
1p
b0 f
b0 D
b0 e
b0 h
b0 g
0c
0i
1(
#3520
0(
#3540
11
b0 l
b0 o
b0 n
0j
0p
b10100000000000000010100 t
b1001110111010 s
1q
1u
1(
#3560
0(
#3580
01
1$"
b10111111111100001000100 Y
b10111111111100001000100 !"
1v
b1111101010011111111100001000100 "
b1111101010011111111100001000100 8
b1111101010011111111100001000100 ]
b0 t
b0 s
0q
0u
1(
#3600
0(
#3620
0v
b110000000000000000000000000000000000000000010111111111100001000100000000000000000000000000000000000111110101001111111110000100010000000000000000000000011111001111 !
b110000000000000000000000000000000000000000010111111111100001000100000000000000000000000000000000000111110101001111111110000100010000000000000000000000011111001111 x
1(
#3640
0(
#3660
b10000000000000000000000000000000000000000010111111111100001000100000000000000000000000000000000000111110101001111111110000100010000000000000000000000011111001111 !
b10000000000000000000000000000000000000000010111111111100001000100000000000000000000000000000000000111110101001111111110000100010000000000000000000000011111001111 x
1(
