HFT_Modules/tob_dump.vcd
$date
	Fri Apr 17 17:32:21 2026
$end
$version
	Icarus Verilog
$end
$timescale
	100ps
$end
$scope module top_of_book_tb $end
$var wire 138 ! tob [137:0] $end
$var parameter 64 " DATA_W $end
$var parameter 32 # N_LEVELS $end
$var parameter 32 $ N_SYMBOLS $end
$var parameter 32 % SYM $end
$var parameter 32 & SYM_W $end
$var reg 1 ' clk $end
$var reg 1 ( rst_n $end
$var reg 402 ) update [401:0] $end
$var integer 32 * fail_count [31:0] $end
$var integer 32 + fb [31:0] $end
$scope module dut $end
$var wire 1 ' clk $end
$var wire 402 , in_update [401:0] $end
$var wire 1 - is_bid $end
$var wire 1 ( rst_n $end
$var wire 1 . sym_valid $end
$var wire 9 / sym [8:0] $end
$var wire 3 0 msg_type [2:0] $end
$var wire 192 1 bid_b_rdata [191:0] $end
$var wire 192 2 bid_a_rdata [191:0] $end
$var wire 192 3 ask_b_rdata [191:0] $end
$var wire 192 4 ask_a_rdata [191:0] $end
$var wire 192 5 active_rdata [191:0] $end
$var parameter 64 6 DATA_W $end
$var parameter 32 7 N_LEVELS $end
$var parameter 32 8 N_SYMBOLS $end
$var parameter 32 9 SYM_W $end
$var reg 1 : add_inserted $end
$var reg 1 ; add_match_found $end
$var reg 32 < add_price [31:0] $end
$var reg 32 = add_price_r [31:0] $end
$var reg 32 > add_qty [31:0] $end
$var reg 32 ? add_qty_r [31:0] $end
$var reg 9 @ ask_a_addr [8:0] $end
$var reg 9 A ask_b_addr [8:0] $end
$var reg 192 B ask_b_wdata [191:0] $end
$var reg 1 C ask_b_wen $end
$var reg 3 D better_than [2:0] $end
$var reg 9 E bid_a_addr [8:0] $end
$var reg 9 F bid_b_addr [8:0] $end
$var reg 192 G bid_b_wdata [191:0] $end
$var reg 1 H bid_b_wen $end
$var reg 9 I clear_addr_r [8:0] $end
$var reg 1 J do_add $end
$var reg 1 K do_add_r $end
$var reg 1 L do_remove $end
$var reg 1 M do_remove_r $end
$var reg 1 N is_bid_r $end
$var reg 192 O new_data [191:0] $end
$var reg 1 P op_side $end
$var reg 192 Q other_side_r [191:0] $end
$var reg 138 R out_tob [137:0] $end
$var reg 1 S rm_found $end
$var reg 32 T rm_price [31:0] $end
$var reg 32 U rm_price_r [31:0] $end
$var reg 32 V rm_qty [31:0] $end
$var reg 32 W rm_qty_r [31:0] $end
$var reg 2 X state_r [1:0] $end
$var reg 9 Y sym_r [8:0] $end
$var reg 1 Z sym_valid_r $end
$scope module ask_ram $end
$var wire 9 [ a_addr [8:0] $end
$var wire 9 \ b_addr [8:0] $end
$var wire 192 ] b_wdata [191:0] $end
$var wire 1 C b_wen $end
$var wire 1 ' clk $end
$var parameter 32 ^ ADDR_W $end
$var parameter 64 _ DATA_W $end
$var parameter 32 ` DEPTH $end
$var reg 192 a a_rdata [191:0] $end
$var reg 192 b b_rdata [191:0] $end
$upscope $end
$scope module bid_ram $end
$var wire 9 c a_addr [8:0] $end
$var wire 9 d b_addr [8:0] $end
$var wire 192 e b_wdata [191:0] $end
$var wire 1 H b_wen $end
$var wire 1 ' clk $end
$var parameter 32 f ADDR_W $end
$var parameter 64 g DATA_W $end
$var parameter 32 h DEPTH $end
$var reg 192 i a_rdata [191:0] $end
$var reg 192 j b_rdata [191:0] $end
$upscope $end
$scope begin $ivl_for_loop1 $end
$var integer 32 k i [31:0] $end
$upscope $end
$scope begin $ivl_for_loop10 $end
$var integer 32 l i [31:0] $end
$upscope $end
$scope begin $ivl_for_loop11 $end
$var integer 32 m i [31:0] $end
$upscope $end
$scope begin $ivl_for_loop12 $end
$var integer 32 n i [31:0] $end
$upscope $end
$scope begin $ivl_for_loop2 $end
$var integer 32 o i [31:0] $end
$upscope $end
$scope begin $ivl_for_loop3 $end
$var integer 32 p i [31:0] $end
$scope begin $ivl_for_loop4 $end
$var integer 32 q j [31:0] $end
$upscope $end
$upscope $end
$scope begin $ivl_for_loop5 $end
$var integer 32 r i [31:0] $end
$upscope $end
$scope begin $ivl_for_loop6 $end
$var integer 32 s i [31:0] $end
$upscope $end
$scope begin $ivl_for_loop7 $end
$var integer 32 t i [31:0] $end
$upscope $end
$scope begin $ivl_for_loop8 $end
$var integer 32 u i [31:0] $end
$scope begin $ivl_for_loop9 $end
$var integer 32 v j [31:0] $end
$upscope $end
$upscope $end
$upscope $end
$scope task check_ask $end
$var reg 32 w ep [31:0] $end
$var reg 32 x eq [31:0] $end
$upscope $end
$scope task check_bid $end
$var reg 32 y ep [31:0] $end
$var reg 32 z eq [31:0] $end
$upscope $end
$scope task check_level $end
$var reg 192 { entry [191:0] $end
$var reg 32 | ep [31:0] $end
$var reg 32 } eq [31:0] $end
$var reg 32 ~ gp [31:0] $end
$var reg 32 !" gq [31:0] $end
$var reg 32 "" s [31:0] $end
$var reg 1 #" side_is_bid $end
$var integer 32 $" lvl [31:0] $end
$upscope $end
$scope task pr $end
$upscope $end
$scope task print_bbo $end
$upscope $end
$scope task print_book $end
$var reg 192 %" ask_entry [191:0] $end
$var reg 192 &" bid_entry [191:0] $end
$var reg 32 '" s [31:0] $end
$scope begin $ivl_for_loop0 $end
$var integer 32 (" i [31:0] $end
$upscope $end
$upscope $end
$scope task send $end
$upscope $end
$scope task send_add $end
$upscope $end
$scope task send_del $end
$upscope $end
$scope task send_exec $end
$upscope $end
$scope task send_mod $end
$upscope $end
$scope task send_repl $end
$upscope $end
$upscope $end
$enddefinitions $end
$comment Show the parameter values. $end
$dumpall
b111110100 h
b11000000 g
b1001 f
b111110100 `
b11000000 _
b1001 ^
b1001 9
b111110100 8
b11 7
b11000000 6
b1001 &
b101 %
b111110100 $
b11 #
b11000000 "
$end
#0
$dumpvars
b0 ("
bx '"
bx &"
bx %"
bx $"
x#"
bx ""
bx !"
bx ~
bx }
bx |
bx {
bx z
bx y
bx x
bx w
b0 v
b0 u
b0 t
b11 s
b11 r
b0 q
b0 p
b11 o
b0 n
b0 m
b11 l
b11 k
bx j
bx i
b0 e
b0 d
b0 c
bx b
bx a
b0 ]
b0 \
b0 [
xZ
bx Y
bx X
bx W
b0 V
bx U
b0 T
0S
bx R
bx Q
0P
bx O
xN
xM
0L
xK
0J
bx I
0H
b0 G
b0 F
b0 E
bx D
0C
b0 B
b0 A
b0 @
bx ?
b0 >
bx =
b0 <
0;
0:
bx 5
bx 4
bx 3
bx 2
bx 1
b0 0
b0 /
0.
1-
b0 ,
bx +
b0 *
b0 )
0(
0'
bx !
$end
#20
b11 l
b0 O
b111 D
b11 r
b11 s
b11 o
1C
1H
b0 !
b0 R
b0 Q
0N
b0 ?
b0 =
b0 W
b0 U
0K
0M
0Z
b0 Y
b0 I
b0 X
b11 m
1'
#40
0'
#60
b11 m
1'
#80
0'
#100
b11 o
b11 k
b0 5
b0 2
b0 i
b0 1
b0 j
b0 4
b0 a
b0 3
b0 b
b11 m
1'
#120
0'
#140
b11 m
1'
#150
1(
#160
0'
#180
b1 A
b1 \
b1 F
b1 d
1C
1H
b1 I
1'
#200
0'
#220
1C
1H
b10 A
b10 \
b10 F
b10 d
b10 I
bx 3
bx b
bx 1
bx j
1'
#240
0'
#260
1C
1H
b11 A
b11 \
b11 F
b11 d
b11 I
1'
#280
0'
#300
1C
1H
b100 A
b100 \
b100 F
b100 d
b100 I
1'
#320
0'
#340
1C
1H
b101 A
b101 \
b101 F
b101 d
b101 I
1'
#360
0'
#380
1C
1H
b110 A
b110 \
b110 F
b110 d
b110 I
1'
#400
0'
#420
1C
1H
b111 A
b111 \
b111 F
b111 d
b111 I
1'
#440
0'
#460
1C
1H
b1000 A
b1000 \
b1000 F
b1000 d
b1000 I
1'
#480
0'
#500
1C
1H
b1001 A
b1001 \
b1001 F
b1001 d
b1001 I
1'
#520
0'
#540
1C
1H
b1010 A
b1010 \
b1010 F
b1010 d
b1010 I
1'
#560
0'
#580
1C
1H
b1011 A
b1011 \
b1011 F
b1011 d
b1011 I
1'
#600
0'
#620
1C
1H
b1100 A
b1100 \
b1100 F
b1100 d
b1100 I
1'
#640
0'
#660
1C
1H
b1101 A
b1101 \
b1101 F
b1101 d
b1101 I
1'
#680
0'
#700
1C
1H
b1110 A
b1110 \
b1110 F
b1110 d
b1110 I
1'
#720
0'
#740
1C
1H
b1111 A
b1111 \
b1111 F
b1111 d
b1111 I
1'
#760
0'
#780
1C
1H
b10000 A
b10000 \
b10000 F
b10000 d
b10000 I
1'
#800
0'
#820
1C
1H
b10001 A
b10001 \
b10001 F
b10001 d
b10001 I
1'
#840
0'
#860
1C
1H
b10010 A
b10010 \
b10010 F
b10010 d
b10010 I
1'
#880
0'
#900
1C
1H
b10011 A
b10011 \
b10011 F
b10011 d
b10011 I
1'
#920
0'
#940
1C
1H
b10100 A
b10100 \
b10100 F
b10100 d
b10100 I
1'
#960
0'
#980
1C
1H
b10101 A
b10101 \
b10101 F
b10101 d
b10101 I
1'
#1000
0'
#1020
1C
1H
b10110 A
b10110 \
b10110 F
b10110 d
b10110 I
1'
#1040
0'
#1060
1C
1H
b10111 A
b10111 \
b10111 F
b10111 d
b10111 I
1'
#1080
0'
#1100
1C
1H
b11000 A
b11000 \
b11000 F
b11000 d
b11000 I
1'
#1120
0'
#1140
1C
1H
b11001 A
b11001 \
b11001 F
b11001 d
b11001 I
1'
#1160
0'
#1180
1C
1H
b11010 A
b11010 \
b11010 F
b11010 d
b11010 I
1'
#1200
0'
#1220
1C
1H
b11011 A
b11011 \
b11011 F
b11011 d
b11011 I
1'
#1240
0'
#1260
1C
1H
b11100 A
b11100 \
b11100 F
b11100 d
b11100 I
1'
#1280
0'
#1300
1C
1H
b11101 A
b11101 \
b11101 F
b11101 d
b11101 I
1'
#1320
0'
#1340
1C
1H
b11110 A
b11110 \
b11110 F
b11110 d
b11110 I
1'
#1360
0'
#1380
1C
1H
b11111 A
b11111 \
b11111 F
b11111 d
b11111 I
1'
#1400
0'
#1420
1C
1H
b100000 A
b100000 \
b100000 F
b100000 d
b100000 I
1'
#1440
0'
#1460
1C
1H
b100001 A
b100001 \
b100001 F
b100001 d
b100001 I
1'
#1480
0'
#1500
1C
1H
b100010 A
b100010 \
b100010 F
b100010 d
b100010 I
1'
#1520
0'
#1540
1C
1H
b100011 A
b100011 \
b100011 F
b100011 d
b100011 I
1'
#1560
0'
#1580
1C
1H
b100100 A
b100100 \
b100100 F
b100100 d
b100100 I
1'
#1600
0'
#1620
1C
1H
b100101 A
b100101 \
b100101 F
b100101 d
b100101 I
1'
#1640
0'
#1660
1C
1H
b100110 A
b100110 \
b100110 F
b100110 d
b100110 I
1'
#1680
0'
#1700
1C
1H
b100111 A
b100111 \
b100111 F
b100111 d
b100111 I
1'
#1720
0'
#1740
1C
1H
b101000 A
b101000 \
b101000 F
b101000 d
b101000 I
1'
#1760
0'
#1780
1C
1H
b101001 A
b101001 \
b101001 F
b101001 d
b101001 I
1'
#1800
0'
#1820
1C
1H
b101010 A
b101010 \
b101010 F
b101010 d
b101010 I
1'
#1840
0'
#1860
1C
1H
b101011 A
b101011 \
b101011 F
b101011 d
b101011 I
1'
#1880
0'
#1900
1C
1H
b101100 A
b101100 \
b101100 F
b101100 d
b101100 I
1'
#1920
0'
#1940
1C
1H
b101101 A
b101101 \
b101101 F
b101101 d
b101101 I
1'
#1960
0'
#1980
1C
1H
b101110 A
b101110 \
b101110 F
b101110 d
b101110 I
1'
#2000
0'
#2020
1C
1H
b101111 A
b101111 \
b101111 F
b101111 d
b101111 I
1'
#2040
0'
#2060
1C
1H
b110000 A
b110000 \
b110000 F
b110000 d
b110000 I
1'
#2080
0'
#2100
1C
1H
b110001 A
b110001 \
b110001 F
b110001 d
b110001 I
1'
#2120
0'
#2140
1C
1H
b110010 A
b110010 \
b110010 F
b110010 d
b110010 I
1'
#2160
0'
#2180
1C
1H
b110011 A
b110011 \
b110011 F
b110011 d
b110011 I
1'
#2200
0'
#2220
1C
1H
b110100 A
b110100 \
b110100 F
b110100 d
b110100 I
1'
#2240
0'
#2260
1C
1H
b110101 A
b110101 \
b110101 F
b110101 d
b110101 I
1'
#2280
0'
#2300
1C
1H
b110110 A
b110110 \
b110110 F
b110110 d
b110110 I
1'
#2320
0'
#2340
1C
1H
b110111 A
b110111 \
b110111 F
b110111 d
b110111 I
1'
#2360
0'
#2380
1C
1H
b111000 A
b111000 \
b111000 F
b111000 d
b111000 I
1'
#2400
0'
#2420
1C
1H
b111001 A
b111001 \
b111001 F
b111001 d
b111001 I
1'
#2440
0'
#2460
1C
1H
b111010 A
b111010 \
b111010 F
b111010 d
b111010 I
1'
#2480
0'
#2500
1C
1H
b111011 A
b111011 \
b111011 F
b111011 d
b111011 I
1'
#2520
0'
#2540
1C
1H
b111100 A
b111100 \
b111100 F
b111100 d
b111100 I
1'
#2560
0'
#2580
1C
1H
b111101 A
b111101 \
b111101 F
b111101 d
b111101 I
1'
#2600
0'
#2620
1C
1H
b111110 A
b111110 \
b111110 F
b111110 d
b111110 I
1'
#2640
0'
#2660
1C
1H
b111111 A
b111111 \
b111111 F
b111111 d
b111111 I
1'
#2680
0'
#2700
1C
1H
b1000000 A
b1000000 \
b1000000 F
b1000000 d
b1000000 I
1'
#2720
0'
#2740
1C
1H
b1000001 A
b1000001 \
b1000001 F
b1000001 d
b1000001 I
1'
#2760
0'
#2780
1C
1H
b1000010 A
b1000010 \
b1000010 F
b1000010 d
b1000010 I
1'
#2800
0'
#2820
1C
1H
b1000011 A
b1000011 \
b1000011 F
b1000011 d
b1000011 I
1'
#2840
0'
#2860
1C
1H
b1000100 A
b1000100 \
b1000100 F
b1000100 d
b1000100 I
1'
#2880
0'
#2900
1C
1H
b1000101 A
b1000101 \
b1000101 F
b1000101 d
b1000101 I
1'
#2920
0'
#2940
1C
1H
b1000110 A
b1000110 \
b1000110 F
b1000110 d
b1000110 I
1'
#2960
0'
#2980
1C
1H
b1000111 A
b1000111 \
b1000111 F
b1000111 d
b1000111 I
1'
#3000
0'
#3020
1C
1H
b1001000 A
b1001000 \
b1001000 F
b1001000 d
b1001000 I
1'
#3040
0'
#3060
1C
1H
b1001001 A
b1001001 \
b1001001 F
b1001001 d
b1001001 I
1'
#3080
0'
#3100
1C
1H
b1001010 A
b1001010 \
b1001010 F
b1001010 d
b1001010 I
1'
#3120
0'
#3140
1C
1H
b1001011 A
b1001011 \
b1001011 F
b1001011 d
b1001011 I
1'
#3160
0'
#3180
1C
1H
b1001100 A
b1001100 \
b1001100 F
b1001100 d
b1001100 I
1'
#3200
0'
#3220
1C
1H
b1001101 A
b1001101 \
b1001101 F
b1001101 d
b1001101 I
1'
#3240
0'
#3260
1C
1H
b1001110 A
b1001110 \
b1001110 F
b1001110 d
b1001110 I
1'
#3280
0'
#3300
1C
1H
b1001111 A
b1001111 \
b1001111 F
b1001111 d
b1001111 I
1'
#3320
0'
#3340
1C
1H
b1010000 A
b1010000 \
b1010000 F
b1010000 d
b1010000 I
1'
#3360
0'
#3380
1C
1H
b1010001 A
b1010001 \
b1010001 F
b1010001 d
b1010001 I
1'
#3400
0'
#3420
1C
1H
b1010010 A
b1010010 \
b1010010 F
b1010010 d
b1010010 I
1'
#3440
0'
#3460
1C
1H
b1010011 A
b1010011 \
b1010011 F
b1010011 d
b1010011 I
1'
#3480
0'
#3500
1C
1H
b1010100 A
b1010100 \
b1010100 F
b1010100 d
b1010100 I
1'
#3520
0'
#3540
1C
1H
b1010101 A
b1010101 \
b1010101 F
b1010101 d
b1010101 I
1'
#3560
0'
#3580
1C
1H
b1010110 A
b1010110 \
b1010110 F
b1010110 d
b1010110 I
1'
#3600
0'
#3620
1C
1H
b1010111 A
b1010111 \
b1010111 F
b1010111 d
b1010111 I
1'
#3640
0'
#3660
1C
1H
b1011000 A
b1011000 \
b1011000 F
b1011000 d
b1011000 I
1'
#3680
0'
#3700
1C
1H
b1011001 A
b1011001 \
b1011001 F
b1011001 d
b1011001 I
1'
#3720
0'
#3740
1C
1H
b1011010 A
b1011010 \
b1011010 F
b1011010 d
b1011010 I
1'
#3760
0'
#3780
1C
1H
b1011011 A
b1011011 \
b1011011 F
b1011011 d
b1011011 I
1'
#3800
0'
#3820
1C
1H
b1011100 A
b1011100 \
b1011100 F
b1011100 d
b1011100 I
1'
#3840
0'
#3860
1C
1H
b1011101 A
b1011101 \
b1011101 F
b1011101 d
b1011101 I
1'
#3880
0'
#3900
1C
1H
b1011110 A
b1011110 \
b1011110 F
b1011110 d
b1011110 I
1'
#3920
0'
#3940
1C
1H
b1011111 A
b1011111 \
b1011111 F
b1011111 d
b1011111 I
1'
#3960
0'
#3980
1C
1H
b1100000 A
b1100000 \
b1100000 F
b1100000 d
b1100000 I
1'
#4000
0'
#4020
1C
1H
b1100001 A
b1100001 \
b1100001 F
b1100001 d
b1100001 I
1'
#4040
0'
#4060
1C
1H
b1100010 A
b1100010 \
b1100010 F
b1100010 d
b1100010 I
1'
#4080
0'
#4100
1C
1H
b1100011 A
b1100011 \
b1100011 F
b1100011 d
b1100011 I
1'
#4120
0'
#4140
1C
1H
b1100100 A
b1100100 \
b1100100 F
b1100100 d
b1100100 I
1'
#4160
0'
#4180
1C
1H
b1100101 A
b1100101 \
b1100101 F
b1100101 d
b1100101 I
1'
#4200
0'
#4220
1C
1H
b1100110 A
b1100110 \
b1100110 F
b1100110 d
b1100110 I
1'
#4240
0'
#4260
1C
1H
b1100111 A
b1100111 \
b1100111 F
b1100111 d
b1100111 I
1'
#4280
0'
#4300
1C
1H
b1101000 A
b1101000 \
b1101000 F
b1101000 d
b1101000 I
1'
#4320
0'
#4340
1C
1H
b1101001 A
b1101001 \
b1101001 F
b1101001 d
b1101001 I
1'
#4360
0'
#4380
1C
1H
b1101010 A
b1101010 \
b1101010 F
b1101010 d
b1101010 I
1'
#4400
0'
#4420
1C
1H
b1101011 A
b1101011 \
b1101011 F
b1101011 d
b1101011 I
1'
#4440
0'
#4460
1C
1H
b1101100 A
b1101100 \
b1101100 F
b1101100 d
b1101100 I
1'
#4480
0'
#4500
1C
1H
b1101101 A
b1101101 \
b1101101 F
b1101101 d
b1101101 I
1'
#4520
0'
#4540
1C
1H
b1101110 A
b1101110 \
b1101110 F
b1101110 d
b1101110 I
1'
#4560
0'
#4580
1C
1H
b1101111 A
b1101111 \
b1101111 F
b1101111 d
b1101111 I
1'
#4600
0'
#4620
1C
1H
b1110000 A
b1110000 \
b1110000 F
b1110000 d
b1110000 I
1'
#4640
0'
#4660
1C
1H
b1110001 A
b1110001 \
b1110001 F
b1110001 d
b1110001 I
1'
#4680
0'
#4700
1C
1H
b1110010 A
b1110010 \
b1110010 F
b1110010 d
b1110010 I
1'
#4720
0'
#4740
1C
1H
b1110011 A
b1110011 \
b1110011 F
b1110011 d
b1110011 I
1'
#4760
0'
#4780
1C
1H
b1110100 A
b1110100 \
b1110100 F
b1110100 d
b1110100 I
1'
#4800
0'
#4820
1C
1H
b1110101 A
b1110101 \
b1110101 F
b1110101 d
b1110101 I
1'
#4840
0'
#4860
1C
1H
b1110110 A
b1110110 \
b1110110 F
b1110110 d
b1110110 I
1'
#4880
0'
#4900
1C
1H
b1110111 A
b1110111 \
b1110111 F
b1110111 d
b1110111 I
1'
#4920
0'
#4940
1C
1H
b1111000 A
b1111000 \
b1111000 F
b1111000 d
b1111000 I
1'
#4960
0'
#4980
1C
1H
b1111001 A
b1111001 \
b1111001 F
b1111001 d
b1111001 I
1'
#5000
0'
#5020
1C
1H
b1111010 A
b1111010 \
b1111010 F
b1111010 d
b1111010 I
1'
#5040
0'
#5060
1C
1H
b1111011 A
b1111011 \
b1111011 F
b1111011 d
b1111011 I
1'
#5080
0'
#5100
1C
1H
b1111100 A
b1111100 \
b1111100 F
b1111100 d
b1111100 I
1'
#5120
0'
#5140
1C
1H
b1111101 A
b1111101 \
b1111101 F
b1111101 d
b1111101 I
1'
#5160
0'
#5180
1C
1H
b1111110 A
b1111110 \
b1111110 F
b1111110 d
b1111110 I
1'
#5200
0'
#5220
1C
1H
b1111111 A
b1111111 \
b1111111 F
b1111111 d
b1111111 I
1'
#5240
0'
#5260
1C
1H
b10000000 A
b10000000 \
b10000000 F
b10000000 d
b10000000 I
1'
#5280
0'
#5300
1C
1H
b10000001 A
b10000001 \
b10000001 F
b10000001 d
b10000001 I
1'
#5320
0'
#5340
1C
1H
b10000010 A
b10000010 \
b10000010 F
b10000010 d
b10000010 I
1'
#5360
0'
#5380
1C
1H
b10000011 A
b10000011 \
b10000011 F
b10000011 d
b10000011 I
1'
#5400
0'
#5420
1C
1H
b10000100 A
b10000100 \
b10000100 F
b10000100 d
b10000100 I
1'
#5440
0'
#5460
1C
1H
b10000101 A
b10000101 \
b10000101 F
b10000101 d
b10000101 I
1'
#5480
0'
#5500
1C
1H
b10000110 A
b10000110 \
b10000110 F
b10000110 d
b10000110 I
1'
#5520
0'
#5540
1C
1H
b10000111 A
b10000111 \
b10000111 F
b10000111 d
b10000111 I
1'
#5560
0'
#5580
1C
1H
b10001000 A
b10001000 \
b10001000 F
b10001000 d
b10001000 I
1'
#5600
0'
#5620
1C
1H
b10001001 A
b10001001 \
b10001001 F
b10001001 d
b10001001 I
1'
#5640
0'
#5660
1C
1H
b10001010 A
b10001010 \
b10001010 F
b10001010 d
b10001010 I
1'
#5680
0'
#5700
1C
1H
b10001011 A
b10001011 \
b10001011 F
b10001011 d
b10001011 I
1'
#5720
0'
#5740
1C
1H
b10001100 A
b10001100 \
b10001100 F
b10001100 d
b10001100 I
1'
#5760
0'
#5780
1C
1H
b10001101 A
b10001101 \
b10001101 F
b10001101 d
b10001101 I
1'
#5800
0'
#5820
1C
1H
b10001110 A
b10001110 \
b10001110 F
b10001110 d
b10001110 I
1'
#5840
0'
#5860
1C
1H
b10001111 A
b10001111 \
b10001111 F
b10001111 d
b10001111 I
1'
#5880
0'
#5900
1C
1H
b10010000 A
b10010000 \
b10010000 F
b10010000 d
b10010000 I
1'
#5920
0'
#5940
1C
1H
b10010001 A
b10010001 \
b10010001 F
b10010001 d
b10010001 I
1'
#5960
0'
#5980
1C
1H
b10010010 A
b10010010 \
b10010010 F
b10010010 d
b10010010 I
1'
#6000
0'
#6020
1C
1H
b10010011 A
b10010011 \
b10010011 F
b10010011 d
b10010011 I
1'
#6040
0'
#6060
1C
1H
b10010100 A
b10010100 \
b10010100 F
b10010100 d
b10010100 I
1'
#6080
0'
#6100
1C
1H
b10010101 A
b10010101 \
b10010101 F
b10010101 d
b10010101 I
1'
#6120
0'
#6140
1C
1H
b10010110 A
b10010110 \
b10010110 F
b10010110 d
b10010110 I
1'
#6160
0'
#6180
1C
1H
b10010111 A
b10010111 \
b10010111 F
b10010111 d
b10010111 I
1'
#6200
0'
#6220
1C
1H
b10011000 A
b10011000 \
b10011000 F
b10011000 d
b10011000 I
1'
#6240
0'
#6260
1C
1H
b10011001 A
b10011001 \
b10011001 F
b10011001 d
b10011001 I
1'
#6280
0'
#6300
1C
1H
b10011010 A
b10011010 \
b10011010 F
b10011010 d
b10011010 I
1'
#6320
0'
#6340
1C
1H
b10011011 A
b10011011 \
b10011011 F
b10011011 d
b10011011 I
1'
#6360
0'
#6380
1C
1H
b10011100 A
b10011100 \
b10011100 F
b10011100 d
b10011100 I
1'
#6400
0'
#6420
1C
1H
b10011101 A
b10011101 \
b10011101 F
b10011101 d
b10011101 I
1'
#6440
0'
#6460
1C
1H
b10011110 A
b10011110 \
b10011110 F
b10011110 d
b10011110 I
1'
#6480
0'
#6500
1C
1H
b10011111 A
b10011111 \
b10011111 F
b10011111 d
b10011111 I
1'
#6520
0'
#6540
1C
1H
b10100000 A
b10100000 \
b10100000 F
b10100000 d
b10100000 I
1'
#6560
0'
#6580
1C
1H
b10100001 A
b10100001 \
b10100001 F
b10100001 d
b10100001 I
1'
#6600
0'
#6620
1C
1H
b10100010 A
b10100010 \
b10100010 F
b10100010 d
b10100010 I
1'
#6640
0'
#6660
1C
1H
b10100011 A
b10100011 \
b10100011 F
b10100011 d
b10100011 I
1'
#6680
0'
#6700
1C
1H
b10100100 A
b10100100 \
b10100100 F
b10100100 d
b10100100 I
1'
#6720
0'
#6740
1C
1H
b10100101 A
b10100101 \
b10100101 F
b10100101 d
b10100101 I
1'
#6760
0'
#6780
1C
1H
b10100110 A
b10100110 \
b10100110 F
b10100110 d
b10100110 I
1'
#6800
0'
#6820
1C
1H
b10100111 A
b10100111 \
b10100111 F
b10100111 d
b10100111 I
1'
#6840
0'
#6860
1C
1H
b10101000 A
b10101000 \
b10101000 F
b10101000 d
b10101000 I
1'
#6880
0'
#6900
1C
1H
b10101001 A
b10101001 \
b10101001 F
b10101001 d
b10101001 I
1'
#6920
0'
#6940
1C
1H
b10101010 A
b10101010 \
b10101010 F
b10101010 d
b10101010 I
1'
#6960
0'
#6980
1C
1H
b10101011 A
b10101011 \
b10101011 F
b10101011 d
b10101011 I
1'
#7000
0'
#7020
1C
1H
b10101100 A
b10101100 \
b10101100 F
b10101100 d
b10101100 I
1'
#7040
0'
#7060
1C
1H
b10101101 A
b10101101 \
b10101101 F
b10101101 d
b10101101 I
1'
#7080
0'
#7100
1C
1H
b10101110 A
b10101110 \
b10101110 F
b10101110 d
b10101110 I
1'
#7120
0'
#7140
1C
1H
b10101111 A
b10101111 \
b10101111 F
b10101111 d
b10101111 I
1'
#7160
0'
#7180
1C
1H
b10110000 A
b10110000 \
b10110000 F
b10110000 d
b10110000 I
1'
#7200
0'
#7220
1C
1H
b10110001 A
b10110001 \
b10110001 F
b10110001 d
b10110001 I
1'
#7240
0'
#7260
1C
1H
b10110010 A
b10110010 \
b10110010 F
b10110010 d
b10110010 I
1'
#7280
0'
#7300
1C
1H
b10110011 A
b10110011 \
b10110011 F
b10110011 d
b10110011 I
1'
#7320
0'
#7340
1C
1H
b10110100 A
b10110100 \
b10110100 F
b10110100 d
b10110100 I
1'
#7360
0'
#7380
1C
1H
b10110101 A
b10110101 \
b10110101 F
b10110101 d
b10110101 I
1'
#7400
0'
#7420
1C
1H
b10110110 A
b10110110 \
b10110110 F
b10110110 d
b10110110 I
1'
#7440
0'
#7460
1C
1H
b10110111 A
b10110111 \
b10110111 F
b10110111 d
b10110111 I
1'
#7480
0'
#7500
1C
1H
b10111000 A
b10111000 \
b10111000 F
b10111000 d
b10111000 I
1'
#7520
0'
#7540
1C
1H
b10111001 A
b10111001 \
b10111001 F
b10111001 d
b10111001 I
1'
#7560
0'
#7580
1C
1H
b10111010 A
b10111010 \
b10111010 F
b10111010 d
b10111010 I
1'
#7600
0'
#7620
1C
1H
b10111011 A
b10111011 \
b10111011 F
b10111011 d
b10111011 I
1'
#7640
0'
#7660
1C
1H
b10111100 A
b10111100 \
b10111100 F
b10111100 d
b10111100 I
1'
#7680
0'
#7700
1C
1H
b10111101 A
b10111101 \
b10111101 F
b10111101 d
b10111101 I
1'
#7720
0'
#7740
1C
1H
b10111110 A
b10111110 \
b10111110 F
b10111110 d
b10111110 I
1'
#7760
0'
#7780
1C
1H
b10111111 A
b10111111 \
b10111111 F
b10111111 d
b10111111 I
1'
#7800
0'
#7820
1C
1H
b11000000 A
b11000000 \
b11000000 F
b11000000 d
b11000000 I
1'
#7840
0'
#7860
1C
1H
b11000001 A
b11000001 \
b11000001 F
b11000001 d
b11000001 I
1'
#7880
0'
#7900
1C
1H
b11000010 A
b11000010 \
b11000010 F
b11000010 d
b11000010 I
1'
#7920
0'
#7940
1C
1H
b11000011 A
b11000011 \
b11000011 F
b11000011 d
b11000011 I
1'
#7960
0'
#7980
1C
1H
b11000100 A
b11000100 \
b11000100 F
b11000100 d
b11000100 I
1'
#8000
0'
#8020
1C
1H
b11000101 A
b11000101 \
b11000101 F
b11000101 d
b11000101 I
1'
#8040
0'
#8060
1C
1H
b11000110 A
b11000110 \
b11000110 F
b11000110 d
b11000110 I
1'
#8080
0'
#8100
1C
1H
b11000111 A
b11000111 \
b11000111 F
b11000111 d
b11000111 I
1'
#8120
0'
#8140
1C
1H
b11001000 A
b11001000 \
b11001000 F
b11001000 d
b11001000 I
1'
#8160
0'
#8180
1C
1H
b11001001 A
b11001001 \
b11001001 F
b11001001 d
b11001001 I
1'
#8200
0'
#8220
1C
1H
b11001010 A
b11001010 \
b11001010 F
b11001010 d
b11001010 I
1'
#8240
0'
#8260
1C
1H
b11001011 A
b11001011 \
b11001011 F
b11001011 d
b11001011 I
1'
#8280
0'
#8300
1C
1H
b11001100 A
b11001100 \
b11001100 F
b11001100 d
b11001100 I
1'
#8320
0'
#8340
1C
1H
b11001101 A
b11001101 \
b11001101 F
b11001101 d
b11001101 I
1'
#8360
0'
#8380
1C
1H
b11001110 A
b11001110 \
b11001110 F
b11001110 d
b11001110 I
1'
#8400
0'
#8420
1C
1H
b11001111 A
b11001111 \
b11001111 F
b11001111 d
b11001111 I
1'
#8440
0'
#8460
1C
1H
b11010000 A
b11010000 \
b11010000 F
b11010000 d
b11010000 I
1'
#8480
0'
#8500
1C
1H
b11010001 A
b11010001 \
b11010001 F
b11010001 d
b11010001 I
1'
#8520
0'
#8540
1C
1H
b11010010 A
b11010010 \
b11010010 F
b11010010 d
b11010010 I
1'
#8560
0'
#8580
1C
1H
b11010011 A
b11010011 \
b11010011 F
b11010011 d
b11010011 I
1'
#8600
0'
#8620
1C
1H
b11010100 A
b11010100 \
b11010100 F
b11010100 d
b11010100 I
1'
#8640
0'
#8660
1C
1H
b11010101 A
b11010101 \
b11010101 F
b11010101 d
b11010101 I
1'
#8680
0'
#8700
1C
1H
b11010110 A
b11010110 \
b11010110 F
b11010110 d
b11010110 I
1'
#8720
0'
#8740
1C
1H
b11010111 A
b11010111 \
b11010111 F
b11010111 d
b11010111 I
1'
#8760
0'
#8780
1C
1H
b11011000 A
b11011000 \
b11011000 F
b11011000 d
b11011000 I
1'
