HFT_Modules/build/index_arb_dump.vcd
$date
	Tue Mar 24 15:02:32 2026
$end

$version
	Synopsys VCS version V-2023.12-SP2-1_Full64
$end

$timescale
	100ps
$end

$comment Csum: 1 9c9231538b7e185a $end


$scope module index_arb_engine_tb $end
$var reg 1 ! clk $end
$var reg 1 " rst_n $end
$var reg 1 # wt_wr_en $end
$var reg 9 $ wt_wr_addr [8:0] $end
$var reg 32 % wt_wr_data [31:0] $end
$var reg 64 & threshold [63:0] $end
$var reg 64 ' index_monitor [63:0] $end
$var integer 32 ( fail_count $end
$var integer 32 ) fb $end

$scope task pr $end
$upscope $end

$var reg 138 * tob_in [137:0] $end
$var reg 162 + trade_out [161:0] $end

$scope begin unnamed$$_0 $end
$var reg 64 , saved_idx [63:0] $end
$upscope $end


$scope module dut $end
$var reg 32 - actual_mid [31:0] $end
$var reg 1 . clk $end
$var reg 1 / rst_n $end
$var reg 1 0 wt_wr_en $end
$var reg 9 1 wt_wr_addr [8:0] $end
$var reg 32 2 wt_wr_data [31:0] $end
$var reg 64 3 threshold [63:0] $end
$var reg 64 4 out_index [63:0] $end
$var reg 64 5 index_accum [63:0] $end
$var reg 1 6 s0_valid $end
$var reg 1 7 s0_is_index $end
$var reg 1 8 s0_is_component $end
$var reg 9 9 s0_sym [8:0] $end
$var reg 32 : s0_new_mid [31:0] $end
$var reg 33 ; s0_delta [32:0] $end
$var reg 32 < s0_weight [31:0] $end
$var reg 1 = s0_two_sided $end
$var reg 1 > s1_valid $end
$var reg 1 ? s1_is_index $end
$var reg 1 @ s1_is_component $end
$var reg 9 A s1_sym [8:0] $end
$var reg 32 B s1_new_mid [31:0] $end
$var reg 33 C s1_delta [32:0] $end
$var reg 32 D s1_weight [31:0] $end
$var reg 64 E weighted_delta [63:0] $end
$var reg 64 F next_accum [63:0] $end
$var reg 32 G next_actual [31:0] $end
$var reg 64 H actual_q [63:0] $end
$var reg 64 I spread [63:0] $end
$var reg 64 J abs_spread [63:0] $end
$var reg 1 K trade_fire $end
$var reg 1 L trade_dir $end
$var reg 138 M in_tob [137:0] $end
$var reg 162 N out_trade [161:0] $end

$scope begin unnamed$$_0 $end
$upscope $end


$scope begin unnamed$$_1 $end
$upscope $end

$upscope $end

$upscope $end

$enddefinitions $end

#0
$dumpvars
0!
0/
00
0"
08
07
0=
06
x@
x?
x>
xL
xK
0#
b000000000000000000000000000000000000000000000000000000000000000000000000000000000000000000000000000000000000000000000000000000000000000000 M
bxxxxxxxxxxxxxxxxxxxxxxxxxxxxxxxxxxxxxxxxxxxxxxxxxxxxxxxxxxxxxxxxxxxxxxxxxxxxxxxxxxxxxxxxxxxxxxxxxxxxxxxxxxxxxxxxxxxxxxxxxxxxxxxxxxxxxxxxxxxxxxxxxxxxxxxxxxxxxxxxxx N
b000000000000000000000000000000000000000000000000000000000000000000000000000000000000000000000000000000000000000000000000000000000000000000 *
bxxxxxxxxxxxxxxxxxxxxxxxxxxxxxxxxxxxxxxxxxxxxxxxxxxxxxxxxxxxxxxxxxxxxxxxxxxxxxxxxxxxxxxxxxxxxxxxxxxxxxxxxxxxxxxxxxxxxxxxxxxxxxxxxxxxxxxxxxxxxxxxxxxxxxxxxxxxxxxxxxx +
bxxxxxxxxxxxxxxxxxxxxxxxxxxxxxxxxxxxxxxxxxxxxxxxxxxxxxxxxxxxxxxxx J
bxxxxxxxxxxxxxxxxxxxxxxxxxxxxxxxx -
b000000000000xxxxxxxxxxxxxxxxxxxxxxxxxxxxxxxx00000000000000000000 H
b0000000000000000000000000000000000000000000000000000000000000000 3
b000000000 1
b00000000000000000000000000000000 2
b00000000000000000000000000000000 (
bxxxxxxxxxxxxxxxxxxxxxxxxxxxxxxxx )
bxxxxxxxxxxxxxxxxxxxxxxxxxxxxxxxxxxxxxxxxxxxxxxxxxxxxxxxxxxxxxxxx 5
bxxxxxxxxxxxxxxxxxxxxxxxxxxxxxxxxxxxxxxxxxxxxxxxxxxxxxxxxxxxxxxxx '
bxxxxxxxxxxxxxxxxxxxxxxxxxxxxxxxxxxxxxxxxxxxxxxxxxxxxxxxxxxxxxxxx F
bxxxxxxxxxxxxxxxxxxxxxxxxxxxxxxxx G
bxxxxxxxxxxxxxxxxxxxxxxxxxxxxxxxxxxxxxxxxxxxxxxxxxxxxxxxxxxxxxxxx 4
bxxxxxxxxxxxxxxxxxxxxxxxxxxxxxxxxx ;
b00000000000000000000000000000000 :
b000000000 9
bxxxxxxxxxxxxxxxxxxxxxxxxxxxxxxxx <
bxxxxxxxxxxxxxxxxxxxxxxxxxxxxxxxxx C
bxxxxxxxxxxxxxxxxxxxxxxxxxxxxxxxx B
bxxxxxxxxx A
bxxxxxxxxxxxxxxxxxxxxxxxxxxxxxxxx D
bxxxxxxxxxxxxxxxxxxxxxxxxxxxxxxxxxxxxxxxxxxxxxxxxxxxxxxxxxxxxxxxx I
b0000000000000000000000000000000000000000000000000000000000000000 &
bxxxxxxxxxxxxxxxxxxxxxxxxxxxxxxxxxxxxxxxxxxxxxxxxxxxxxxxxxxxxxxxx ,
bxxxxxxxxxxxxxxxxxxxxxxxxxxxxxxxxxxxxxxxxxxxxxxxxxxxxxxxxxxxxxxxx E
b000000000 $
b00000000000000000000000000000000 %
0.
$end
#20
1!
1.
0>
0?
0@
b000000000 A
b00000000000000000000000000000000 B
b000000000000000000000000000000000 C
b00000000000000000000000000000000 D
b0000000000000000000000000000000000000000000000000000000000000000 5
b0000000000000000000000000000000000000000000000000000000000000000 4
b0000000000000000000000000000000000000000000000000000000000000000 '
b00000000000000000000000000000000 -
b000000000000000000000000000000000000000000000000000000000000000000000000000000000000000000000000000000000000000000000000000000000000000000000000000000000000000000 N
b000000000000000000000000000000000000000000000000000000000000000000000000000000000000000000000000000000000000000000000000000000000000000000000000000000000000000000 +
b00000000000000000000000000000000 <
b000000000000000000000000000000000 ;
1L
0K
b0000000000000000000000000000000000000000000000000000000000000000 J
b0000000000000000000000000000000000000000000000000000000000000000 I
b0000000000000000000000000000000000000000000000000000000000000000 H
b00000000000000000000000000000000 G
b0000000000000000000000000000000000000000000000000000000000000000 F
b0000000000000000000000000000000000000000000000000000000000000000 E
#40
0!
0.
#60
1!
1.
#80
0!
0.
#100
1!
1.
#120
0!
0.
#140
1!
1.
#150
1"
1/
#160
0!
0.
#180
1!
1.
b010000000000000000000000000000000000000000000000000000000000000000000000000000000000000000000000000000000000000000000000000000000000000000000000000000000000000000 N
b010000000000000000000000000000000000000000000000000000000000000000000000000000000000000000000000000000000000000000000000000000000000000000000000000000000000000000 +
#200
0!
0.
#220
1!
1.
#230
1#
10
b00000000000010000000000000000000 %
b00000000000010000000000000000000 2
#240
0!
0.
#260
1!
1.
b00000000000010000000000000000000 <
#270
0#
00
1#
10
b000000001 $
b000000001 1
b00000000000001000000000000000000 %
b00000000000001000000000000000000 2
#280
0!
0.
#300
1!
1.
b00000000000010000000000000000000 D
#310
0#
00
1#
10
b000000010 $
b000000010 1
b00000000000000100110011001100110 %
b00000000000000100110011001100110 2
#320
0!
0.
#340
1!
1.
#350
0#
00
1#
10
b000000011 $
b000000011 1
b00000000000000011001100110011010 %
b00000000000000011001100110011010 2
#360
0!
0.
#380
1!
1.
#390
0#
00
b0000000000000000000000000000000000000110010000000000000000000000 &
b0000000000000000000000000000000000000110010000000000000000000000 3
#400
0!
0.
#420
1!
1.
#440
0!
0.
#460
1!
1.
#470
b00000000000000000000000000000000 )
b100000000000000000000000000011101000110100000000000000000000000000011001000000000000000000001110101111110000000000000000000000000001100100 *
b100000000000000000000000000011101000110100000000000000000000000000011001000000000000000000001110101111110000000000000000000000000001100100 M
16
b000000000000000000011101010011000 ;
18
1=
b00000000000000000011101010011000 :
#480
0!
0.
#500
1!
1.
1>
1@
b00000000000000000011101010011000 B
b000000000000000000011101010011000 C
b0000000000000000000000000000000111010100110000000000000000000000 E
b000000000000000000000000000000000 ;
b0000000000000000000000000000000111010100110000000000000000000000 J
b0000000000000000000000000000000111010100110000000000000000000000 I
b0000000000000000000000000000000111010100110000000000000000000000 F
#510
b000000000000000000000000000000000000000000000000000000000000000000000000000000000000000000000000000000000000000000000000000000000000000000 *
b000000000000000000000000000000000000000000000000000000000000000000000000000000000000000000000000000000000000000000000000000000000000000000 M
06
b111111111111111111100010101101000 ;
08
0=
b00000000000000000000000000000000 :
#520
0!
0.
#540
1!
1.
0>
0@
b00000000000000000000000000000000 B
b111111111111111111100010101101000 C
b0000000000000000000000000000000111010100110000000000000000000000 5
b0000000000000000000000000000000111010100110000000000000000000000 4
b0000000000000000000000000000000111010100110000000000000000000000 '
b010000000000000000000000000000000111010100110000000000000000000000000000000000000000000000000000011101010011000000000000000000000000000000000000000000000000000000 N
b010000000000000000000000000000000111010100110000000000000000000000000000000000000000000000000000011101010011000000000000000000000000000000000000000000000000000000 +
b1111111111111111111111111111111000101011010000000000000000000000 E
#550
b100000000100000000000000000100110110111100000000000000000000000000011001000000000000000000010011101000010000000000000000000000000001100100 *
b100000000100000000000000000100110110111100000000000000000000000000011001000000000000000000010011101000010000000000000000000000000001100100 M
16
b00000000000001000000000000000000 <
b000000000000000000100111000100000 ;
18
1=
b00000000000000000100111000100000 :
b000000001 9
#560
0!
0.
#580
1!
1.
1>
1@
b000000001 A
b00000000000000000100111000100000 B
b000000000000000000100111000100000 C
b00000000000001000000000000000000 D
b0000000000000000000000000000000000000000000000000000000000000000 J
b0000000000000000000000000000000000000000000000000000000000000000 I
b0000000000000000000000000000000000000000000000000000000000000000 F
b0000000000000000000000000000000100111000100000000000000000000000 E
b000000000000000000000000000000000 ;
b0000000000000000000000000000001100001101010000000000000000000000 J
b0000000000000000000000000000001100001101010000000000000000000000 I
b0000000000000000000000000000001100001101010000000000000000000000 F
#590
b000000000000000000000000000000000000000000000000000000000000000000000000000000000000000000000000000000000000000000000000000000000000000000 *
b000000000000000000000000000000000000000000000000000000000000000000000000000000000000000000000000000000000000000000000000000000000000000000 M
06
b00000000000010000000000000000000 <
b111111111111111111100010101101000 ;
08
0=
b00000000000000000000000000000000 :
b000000000 9
#600
0!
0.
#620
1!
1.
0>
0@
b000000000 A
b00000000000000000000000000000000 B
b111111111111111111100010101101000 C
b00000000000010000000000000000000 D
b0000000000000000000000000000001100001101010000000000000000000000 5
b0000000000000000000000000000001100001101010000000000000000000000 4
b0000000000000000000000000000001100001101010000000000000000000000 '
b010000000000000000000000000000001100001101010000000000000000000000000000000000000000000000000000110000110101000000000000000000000000000000000000000000000000000000 N
b010000000000000000000000000000001100001101010000000000000000000000000000000000000000000000000000110000110101000000000000000000000000000000000000000000000000000000 +
b1111111111111111111111111111111000101011010000000000000000000000 E
#630
b100000001000000000000000000010011010101100000000000000000000000000011001000000000000000000001001110111010000000000000000000000000001100100 *
b100000001000000000000000000010011010101100000000000000000000000000011001000000000000000000001001110111010000000000000000000000000001100100 M
16
b00000000000000100110011001100110 <
b000000000000000000010011100010000 ;
18
1=
b00000000000000000010011100010000 :
b000000010 9
#640
0!
0.
#660
1!
1.
1>
1@
b000000010 A
b00000000000000000010011100010000 B
b000000000000000000010011100010000 C
b00000000000000100110011001100110 D
b0000000000000000000000000000000100111000100000000000000000000000 J
b0000000000000000000000000000000100111000100000000000000000000000 I
b0000000000000000000000000000000100111000100000000000000000000000 F
b0000000000000000000000000000000001011101101111111111000001100000 E
b000000000000000000000000000000000 ;
b0000000000000000000000000000001101101010111111111111000001100000 J
b0000000000000000000000000000001101101010111111111111000001100000 I
b0000000000000000000000000000001101101010111111111111000001100000 F
#670
b000000000000000000000000000000000000000000000000000000000000000000000000000000000000000000000000000000000000000000000000000000000000000000 *
b000000000000000000000000000000000000000000000000000000000000000000000000000000000000000000000000000000000000000000000000000000000000000000 M
06
b00000000000010000000000000000000 <
b111111111111111111100010101101000 ;
08
0=
b00000000000000000000000000000000 :
b000000000 9
#680
0!
0.
#700
1!
1.
0>
0@
b000000000 A
b00000000000000000000000000000000 B
b111111111111111111100010101101000 C
b00000000000010000000000000000000 D
b0000000000000000000000000000001101101010111111111111000001100000 5
b0000000000000000000000000000001101101010111111111111000001100000 4
b0000000000000000000000000000001101101010111111111111000001100000 '
b010000000000000000000000000000001101101010111111111111000001100000000000000000000000000000000000110110101011111111111100000110000000000000000000000000000000000000 N
b010000000000000000000000000000001101101010111111111111000001100000000000000000000000000000000000110110101011111111111100000110000000000000000000000000000000000000 +
b1111111111111111111111111111111000101011010000000000000000000000 E
#710
b100000001100000000000000000001001100100100000000000000000000000000011001000000000000000000000100111110110000000000000000000000000001100100 *
b100000001100000000000000000001001100100100000000000000000000000000011001000000000000000000000100111110110000000000000000000000000001100100 M
16
b00000000000000011001100110011010 <
b000000000000000000001001110001000 ;
18
1=
b00000000000000000001001110001000 :
b000000011 9
#720
0!
0.
#740
1!
1.
1>
1@
b000000011 A
b00000000000000000001001110001000 B
b000000000000000000001001110001000 C
b00000000000000011001100110011010 D
b0000000000000000000000000000000110010110001111111111000001100000 J
b0000000000000000000000000000000110010110001111111111000001100000 I
b0000000000000000000000000000000110010110001111111111000001100000 F
b0000000000000000000000000000000000011111010000000000011111010000 E
b000000000000000000000000000000000 ;
b0000000000000000000000000000001110001010001111111111100000110000 J
b0000000000000000000000000000001110001010001111111111100000110000 I
b0000000000000000000000000000001110001010001111111111100000110000 F
#750
b000000000000000000000000000000000000000000000000000000000000000000000000000000000000000000000000000000000000000000000000000000000000000000 *
b000000000000000000000000000000000000000000000000000000000000000000000000000000000000000000000000000000000000000000000000000000000000000000 M
06
b00000000000010000000000000000000 <
b111111111111111111100010101101000 ;
08
0=
b00000000000000000000000000000000 :
b000000000 9
#760
0!
0.
#780
1!
1.
0>
0@
b000000000 A
b00000000000000000000000000000000 B
b111111111111111111100010101101000 C
b00000000000010000000000000000000 D
b0000000000000000000000000000001110001010001111111111100000110000 5
b0000000000000000000000000000001110001010001111111111100000110000 4
b0000000000000000000000000000001110001010001111111111100000110000 '
b010000000000000000000000000000001110001010001111111111100000110000000000000000000000000000000000111000101000111111111110000011000000000000000000000000000000000000 N
b010000000000000000000000000000001110001010001111111111100000110000000000000000000000000000000000111000101000111111111110000011000000000000000000000000000000000000 +
b1111111111111111111111111111111000101011010000000000000000000000 E
#790
b111111010000000000000000000011100001110001000000000000000000000000011001000000000000000000001110001101010100000000000000000000000001100100 *
b111111010000000000000000000011100001110001000000000000000000000000011001000000000000000000001110001101010100000000000000000000000001100100 M
16
bxxxxxxxxxxxxxxxxxxxxxxxxxxxxxxxx <
bxxxxxxxxxxxxxxxxxxxxxxxxxxxxxxxxx ;
17
1=
b00000000000000000011100010100011 :
b111110100 9
#800
0!
0.
#820
1!
1.
1>
1?
b111110100 A
b00000000000000000011100010100011 B
bxxxxxxxxxxxxxxxxxxxxxxxxxxxxxxxxx C
bxxxxxxxxxxxxxxxxxxxxxxxxxxxxxxxx D
b0000000000000000000000000000000000000000000011111111100000110000 J
b0000000000000000000000000000000000000000000011111111100000110000 I
b0000000000000000000000000000001110001010001100000000000000000000 H
b00000000000000000011100010100011 G
bxxxxxxxxxxxxxxxxxxxxxxxxxxxxxxxxxxxxxxxxxxxxxxxxxxxxxxxxxxxxxxxx E
#830
b000000000000000000000000000000000000000000000000000000000000000000000000000000000000000000000000000000000000000000000000000000000000000000 *
b000000000000000000000000000000000000000000000000000000000000000000000000000000000000000000000000000000000000000000000000000000000000000000 M
06
b00000000000010000000000000000000 <
b111111111111111111100010101101000 ;
07
0=
b00000000000000000000000000000000 :
b000000000 9
#840
0!
0.
#860
1!
1.
0>
0?
b000000000 A
b00000000000000000000000000000000 B
b111111111111111111100010101101000 C
b00000000000010000000000000000000 D
b00000000000000000011100010100011 -
b010000000000000000000000000000000000000000000011111111100000110000000000000000000000000000000000111000101000111111111110000011000000000000000000000011100010100011 N
b010000000000000000000000000000000000000000000011111111100000110000000000000000000000000000000000111000101000111111111110000011000000000000000000000011100010100011 +
b1111111111111111111111111111111000101011010000000000000000000000 E
#880
0!
0.
#900
1!
1.
#920
0!
0.
#940
1!
1.
#960
0!
0.
#980
1!
1.
#1000
0!
0.
#1020
1!
1.
#1030
b100000000000000000000000000011111000011100000000000000000000000000011001000000000000000000001111101110010000000000000000000000000001100100 *
b100000000000000000000000000011111000011100000000000000000000000000011001000000000000000000001111101110010000000000000000000000000001100100 M
16
b000000000000000000000001111101000 ;
18
1=
b00000000000000000011111010000000 :
#1040
0!
0.
#1060
1!
1.
1>
1@
b00000000000000000011111010000000 B
b000000000000000000000001111101000 C
0L
1K
b0000000000000000000000000000000111010100101100000000011111010000 J
b1111111111111111111111111111111000101011010011111111100000110000 I
b0000000000000000000000000000000110110101011111111111100000110000 F
b0000000000000000000000000000000000011111010000000000000000000000 E
b000000000000000000000000000000000 ;
1L
b0000000000000000000000000000000000011111010011111111100000110000 J
b0000000000000000000000000000000000011111010011111111100000110000 I
b0000000000000000000000000000001110101001011111111111100000110000 F
#1070
b000000000000000000000000000000000000000000000000000000000000000000000000000000000000000000000000000000000000000000000000000000000000000000 *
b000000000000000000000000000000000000000000000000000000000000000000000000000000000000000000000000000000000000000000000000000000000000000000 M
06
b111111111111111111100000110000000 ;
08
0=
b00000000000000000000000000000000 :
#1080
0!
0.
#1100
1!
1.
0>
0@
b00000000000000000000000000000000 B
b111111111111111111100000110000000 C
b0000000000000000000000000000001110101001011111111111100000110000 5
b0000000000000000000000000000001110101001011111111111100000110000 4
b0000000000000000000000000000001110101001011111111111100000110000 '
b110000000000000000000000000000000000011111010011111111100000110000000000000000000000000000000000111010100101111111111110000011000000000000000000000011100010100011 N
b110000000000000000000000000000000000011111010011111111100000110000000000000000000000000000000000111010100101111111111110000011000000000000000000000011100010100011 +
b1111111111111111111111111111111000001100000000000000000000000000 E
#1110
b111111010000000000000000000011101010001101000000000000000000000000011001000000000000000000001110101010000100000000000000000000000001100100 *
b111111010000000000000000000011101010001101000000000000000000000000011001000000000000000000001110101010000100000000000000000000000001100100 M
16
bxxxxxxxxxxxxxxxxxxxxxxxxxxxxxxxx <
bxxxxxxxxxxxxxxxxxxxxxxxxxxxxxxxxx ;
17
1=
b00000000000000000011101010010111 :
b111110100 9
#1120
0!
0.
#1140
1!
1.
1>
1?
b111110100 A
b00000000000000000011101010010111 B
bxxxxxxxxxxxxxxxxxxxxxxxxxxxxxxxxx C
bxxxxxxxxxxxxxxxxxxxxxxxxxxxxxxxx D
b010000000000000000000000000000000000011111010011111111100000110000000000000000000000000000000000111010100101111111111110000011000000000000000000000011100010100011 N
b010000000000000000000000000000000000011111010011111111100000110000000000000000000000000000000000111010100101111111111110000011000000000000000000000011100010100011 +
0K
b0000000000000000000000000000000000000000000011111111100000110000 J
b0000000000000000000000000000000000000000000011111111100000110000 I
b0000000000000000000000000000001110101001011100000000000000000000 H
b00000000000000000011101010010111 G
bxxxxxxxxxxxxxxxxxxxxxxxxxxxxxxxxxxxxxxxxxxxxxxxxxxxxxxxxxxxxxxxx E
#1150
b000000000000000000000000000000000000000000000000000000000000000000000000000000000000000000000000000000000000000000000000000000000000000000 *
b000000000000000000000000000000000000000000000000000000000000000000000000000000000000000000000000000000000000000000000000000000000000000000 M
06
b00000000000010000000000000000000 <
b111111111111111111100000110000000 ;
07
0=
b00000000000000000000000000000000 :
b000000000 9
#1160
0!
0.
#1180
1!
1.
0>
0?
b000000000 A
b00000000000000000000000000000000 B
b111111111111111111100000110000000 C
b00000000000010000000000000000000 D
b00000000000000000011101010010111 -
b010000000000000000000000000000000000000000000011111111100000110000000000000000000000000000000000111010100101111111111110000011000000000000000000000011101010010111 N
b010000000000000000000000000000000000000000000011111111100000110000000000000000000000000000000000111010100101111111111110000011000000000000000000000011101010010111 +
b1111111111111111111111111111111000001100000000000000000000000000 E
#1200
0!
0.
#1220
1!
1.
#1240
0!
0.
#1260
1!
1.
#1280
0!
0.
#1300
1!
1.
#1320
0!
0.
#1340
1!
1.
#1350
b100000000100000000000000000100010111101100000000000000000000000000011001000000000000000000010001101011010000000000000000000000000001100100 *
b100000000100000000000000000100010111101100000000000000000000000000011001000000000000000000010001101011010000000000000000000000000001100100 M
16
b00000000000001000000000000000000 <
b111111111111111111111100000110000 ;
18
1=
b00000000000000000100011001010000 :
b000000001 9
#1360
0!
0.
#1380
1!
1.
1>
1@
b000000001 A
b00000000000000000100011001010000 B
b111111111111111111111100000110000 C
b00000000000001000000000000000000 D
0L
1K
b0000000000000000000000000000000111110011111100000000011111010000 J
b1111111111111111111111111111111000001100000011111111100000110000 I
b0000000000000000000000000000000110110101011111111111100000110000 F
b1111111111111111111111111111111111100000110000000000000000000000 E
b000000000000000000000000000000000 ;
b0000000000000000000000000000000000011111001100000000011111010000 J
b1111111111111111111111111111111111100000110011111111100000110000 I
b0000000000000000000000000000001110001010001111111111100000110000 F
#1390
b000000000000000000000000000000000000000000000000000000000000000000000000000000000000000000000000000000000000000000000000000000000000000000 *
b000000000000000000000000000000000000000000000000000000000000000000000000000000000000000000000000000000000000000000000000000000000000000000 M
06
b00000000000010000000000000000000 <
b111111111111111111100000110000000 ;
08
0=
b00000000000000000000000000000000 :
b000000000 9
#1400
0!
0.
#1420
1!
1.
0>
0@
b000000000 A
b00000000000000000000000000000000 B
b111111111111111111100000110000000 C
b00000000000010000000000000000000 D
b0000000000000000000000000000001110001010001111111111100000110000 5
b0000000000000000000000000000001110001010001111111111100000110000 4
b0000000000000000000000000000001110001010001111111111100000110000 '
b101111111111111111111111111111111111100000110011111111100000110000000000000000000000000000000000111000101000111111111110000011000000000000000000000011101010010111 N
b101111111111111111111111111111111111100000110011111111100000110000000000000000000000000000000000111000101000111111111110000011000000000000000000000011101010010111 +
b1111111111111111111111111111111000001100000000000000000000000000 E
#1430
b0000000000000000000000000000001110001010001111111111100000110000 ,
b100000001000000000000000000010111011100000000000000000000000000000011001000000000000000000000000000000000000000000000000000000000000000000 *
b100000001000000000000000000010111011100000000000000000000000000000011001000000000000000000000000000000000000000000000000000000000000000000 M
16
b00000000000000100110011001100110 <
b111111111111111111111000001100000 ;
b00000000000000000001011101110000 :
b000000010 9
#1440
0!
0.
#1460
1!
1.
1>
b000000010 A
b00000000000000000001011101110000 B
b111111111111111111111000001100000 C
b00000000000000100110011001100110 D
b001111111111111111111111111111111111100000110011111111100000110000000000000000000000000000000000111000101000111111111110000011000000000000000000000011101010010111 N
b001111111111111111111111111111111111100000110011111111100000110000000000000000000000000000000000111000101000111111111110000011000000000000000000000011101010010111 +
b1111111111111111111111111111111111011010100000000000011001000000 E
#1470
b000000000000000000000000000000000000000000000000000000000000000000000000000000000000000000000000000000000000000000000000000000000000000000 *
b000000000000000000000000000000000000000000000000000000000000000000000000000000000000000000000000000000000000000000000000000000000000000000 M
06
b00000000000010000000000000000000 <
b111111111111111111100000110000000 ;
b00000000000000000000000000000000 :
b000000000 9
#1480
0!
0.
#1500
1!
1.
0>
b000000000 A
b00000000000000000000000000000000 B
b111111111111111111100000110000000 C
b00000000000010000000000000000000 D
b101111111111111111111111111111111111100000110011111111100000110000000000000000000000000000000000111000101000111111111110000011000000000000000000000011101010010111 N
b101111111111111111111111111111111111100000110011111111100000110000000000000000000000000000000000111000101000111111111110000011000000000000000000000011101010010111 +
b1111111111111111111111111111111000001100000000000000000000000000 E
#1510
b111111010000000000000000000011100010011001000000000000000000000000011001000000000000000000001110001010110100000000000000000000000001100100 *
b111111010000000000000000000011100010011001000000000000000000000000011001000000000000000000001110001010110100000000000000000000000001100100 M
16
bxxxxxxxxxxxxxxxxxxxxxxxxxxxxxxxx <
bxxxxxxxxxxxxxxxxxxxxxxxxxxxxxxxxx ;
17
1=
b00000000000000000011100010100011 :
b111110100 9
#1520
0!
0.
#1540
1!
1.
1>
1?
b111110100 A
b00000000000000000011100010100011 B
bxxxxxxxxxxxxxxxxxxxxxxxxxxxxxxxxx C
bxxxxxxxxxxxxxxxxxxxxxxxxxxxxxxxx D
b001111111111111111111111111111111111100000110011111111100000110000000000000000000000000000000000111000101000111111111110000011000000000000000000000011101010010111 N
b001111111111111111111111111111111111100000110011111111100000110000000000000000000000000000000000111000101000111111111110000011000000000000000000000011101010010111 +
1L
0K
b0000000000000000000000000000000000000000000011111111100000110000 J
b0000000000000000000000000000000000000000000011111111100000110000 I
b0000000000000000000000000000001110001010001100000000000000000000 H
b00000000000000000011100010100011 G
bxxxxxxxxxxxxxxxxxxxxxxxxxxxxxxxxxxxxxxxxxxxxxxxxxxxxxxxxxxxxxxxx E
#1550
b000000000000000000000000000000000000000000000000000000000000000000000000000000000000000000000000000000000000000000000000000000000000000000 *
b000000000000000000000000000000000000000000000000000000000000000000000000000000000000000000000000000000000000000000000000000000000000000000 M
06
b00000000000010000000000000000000 <
b111111111111111111100000110000000 ;
07
0=
b00000000000000000000000000000000 :
b000000000 9
#1560
0!
0.
#1580
1!
1.
0>
0?
b000000000 A
b00000000000000000000000000000000 B
b111111111111111111100000110000000 C
b00000000000010000000000000000000 D
b00000000000000000011100010100011 -
b010000000000000000000000000000000000000000000011111111100000110000000000000000000000000000000000111000101000111111111110000011000000000000000000000011100010100011 N
b010000000000000000000000000000000000000000000011111111100000110000000000000000000000000000000000111000101000111111111110000011000000000000000000000011100010100011 +
b1111111111111111111111111111111000001100000000000000000000000000 E
#1600
0!
0.
#1620
1!
1.
#1640
0!
0.
#1660
1!
1.
#1680
0!
0.
#1700
1!
1.
#1720
0!
0.
#1740
1!
1.
#1750
b0000000000000000000000000000000000000000010100000000000000000000 &
b0000000000000000000000000000000000000000010100000000000000000000 3
b100000001100000000000000000001001110001000000000000000000000000000011001000000000000000000000100111110110000000000000000000000000001100100 *
b100000001100000000000000000001001110001000000000000000000000000000011001000000000000000000000100111110110000000000000000000000000001100100 M
16
b00000000000000011001100110011010 <
b000000000000000000000000000110010 ;
18
1=
b00000000000000000001001110111010 :
b000000011 9
#1760
0!
0.
#1780
1!
1.
1>
1@
b000000011 A
b00000000000000000001001110111010 B
b000000000000000000000000000110010 C
b00000000000000011001100110011010 D
0L
1K
b0000000000000000000000000000000111110011111100000000011111010000 J
b1111111111111111111111111111111000001100000011111111100000110000 I
b0000000000000000000000000000000110010110001111111111100000110000 F
b0000000000000000000000000000000000000000010100000000000000010100 E
b000000000000000000000000000000000 ;
1L
b0000000000000000000000000000000000000000010111111111100001000100 J
b0000000000000000000000000000000000000000010111111111100001000100 I
b0000000000000000000000000000001110001010100011111111100001000100 F
#1790
b000000000000000000000000000000000000000000000000000000000000000000000000000000000000000000000000000000000000000000000000000000000000000000 *
b000000000000000000000000000000000000000000000000000000000000000000000000000000000000000000000000000000000000000000000000000000000000000000 M
06
b00000000000010000000000000000000 <
b111111111111111111100000110000000 ;
08
0=
b00000000000000000000000000000000 :
b000000000 9
#1800
0!
0.
#1820
1!
1.
0>
0@
b000000000 A
b00000000000000000000000000000000 B
b111111111111111111100000110000000 C
b00000000000010000000000000000000 D
b0000000000000000000000000000001110001010100011111111100001000100 5
b0000000000000000000000000000001110001010100011111111100001000100 4
b0000000000000000000000000000001110001010100011111111100001000100 '
b110000000000000000000000000000000000000000010111111111100001000100000000000000000000000000000000111000101010001111111110000100010000000000000000000011100010100011 N
b110000000000000000000000000000000000000000010111111111100001000100000000000000000000000000000000111000101010001111111110000100010000000000000000000011100010100011 +
b1111111111111111111111111111111000001100000000000000000000000000 E
#1840
0!
0.
#1860
1!
1.
b010000000000000000000000000000000000000000010111111111100001000100000000000000000000000000000000111000101010001111111110000100010000000000000000000011100010100011 N
b010000000000000000000000000000000000000000010111111111100001000100000000000000000000000000000000111000101010001111111110000100010000000000000000000011100010100011 +
