HFT_Modules/build/skewed_hash_table_tb.vcd
$date
	Sun Mar 22 15:45:05 2026
$end

$version
	Synopsys VCS version V-2023.12-SP2-1_Full64
$end

$timescale
	1ps
$end

$comment Csum: 1 3a51154ee6c14abd $end


$scope module skewed_hash_table_tb $end
$var reg 1 ! clk $end
$var reg 1 " rst_n $end
$var reg 1 # ready $end
$var reg 1 $ lookup_valid $end
$var reg 32 % lookup_key [31:0] $end
$var reg 1 & lookup_result_valid $end
$var reg 1 ' lookup_hit $end
$var reg 64 ( lookup_value [63:0] $end
$var reg 1 ) insert_valid $end
$var reg 32 * insert_key [31:0] $end
$var reg 64 + insert_value [63:0] $end
$var reg 1 , insert_ready $end
$var reg 1 - insert_done $end
$var reg 1 . insert_fail $end
$var reg 1 / delete_valid $end
$var reg 32 0 delete_key [31:0] $end
$var reg 1 1 delete_ready $end
$var reg 1 2 delete_done $end
$var reg 1 3 delete_not_found $end
$var integer 32 4 fail_count $end
$var integer 32 5 test_num $end
$var integer 32 6 cap_wr $end
$var reg 1 7 ins_ok $end
$var reg 1 8 del_ok $end
$var reg 1 9 lu_hit $end
$var reg 64 : lu_val [63:0] $end
$var integer 32 ; i $end

$scope task wait_ready $end
$var integer 32 < timeout $end
$var integer 32 = cnt $end
$upscope $end


$scope task do_insert $end
$var reg 32 > key [31:0] $end
$var reg 64 ? value [63:0] $end
$var reg 1 @ success $end
$var integer 32 A timeout $end
$upscope $end


$scope task do_lookup $end
$var reg 32 B key [31:0] $end
$var reg 1 C hit $end
$var reg 64 D value [63:0] $end
$var integer 32 E timeout $end
$upscope $end


$scope task do_delete $end
$var reg 32 F key [31:0] $end
$var reg 1 G found $end
$var integer 32 H timeout $end
$upscope $end


$scope task check_lookup $end
$var reg 32 I key [31:0] $end
$var reg 1 J exp_hit $end
$var reg 64 K exp_value [63:0] $end
$var reg 1 L got_hit $end
$var reg 64 M got_value [63:0] $end
$upscope $end


$scope begin unnamed$$_0 $end
$var integer 32 N bb_idx $end
$var integer 32 O bb_base $end
$upscope $end


$scope begin unnamed$$_1 $end
$var integer 32 P bulk_fails $end
$var reg 1 Q bulk_ins_ok $end
$upscope $end


$scope module dut $end
$var reg 1 R clk $end
$var reg 1 S rst_n $end
$var reg 1 T ready $end
$var reg 1 U lookup_valid $end
$var reg 32 V lookup_key [31:0] $end
$var reg 1 W lookup_result_valid $end
$var reg 1 X lookup_hit $end
$var reg 64 Y lookup_value [63:0] $end
$var reg 1 Z insert_valid $end
$var reg 32 [ insert_key [31:0] $end
$var reg 64 \ insert_value [63:0] $end
$var reg 1 ] insert_ready $end
$var reg 1 ^ insert_done $end
$var reg 1 _ insert_fail $end
$var reg 1 ` delete_valid $end
$var reg 32 a delete_key [31:0] $end
$var reg 1 b delete_ready $end
$var reg 1 c delete_done $end
$var reg 1 d delete_not_found $end
$var reg 1 e s1_valid $end
$var reg 32 f s1_key [31:0] $end
$var reg 1 g s1_hit $end
$var reg 64 h s1_value [63:0] $end
$var reg 4 i state_r [3:0] $end
$var reg 1 j op_is_insert_r $end
$var reg 32 k op_key_r [31:0] $end
$var reg 64 l op_value_r [63:0] $end
$var reg 6 m clear_addr_r [5:0] $end
$var reg 2 n sel_way_r [1:0] $end
$var reg 6 o sel_idx_r [5:0] $end
$var reg 1 p needs_evict_r $end
$var reg 32 q evict_key_r [31:0] $end
$var reg 64 r evict_value_r [63:0] $end
$var reg 2 s evict_dst_way_r [1:0] $end
$var reg 6 t evict_dst_idx_r [5:0] $end
$var reg 4 u chain_cnt_r [3:0] $end
$var reg 1 v cmp_found_existing $end
$var reg 1 w cmp_found_empty $end
$var reg 2 x cmp_sel_way [1:0] $end
$var reg 6 y cmp_sel_idx [5:0] $end
$var reg 1 z evict_slot_empty $end

$scope begin unnamed$$_0 $end
$upscope $end


$scope begin unnamed$$_1 $end
$upscope $end


$scope begin unnamed$$_2 $end
$upscope $end


$scope begin unnamed$$_3 $end
$upscope $end


$scope begin unnamed$$_4 $end
$upscope $end


$scope begin unnamed$$_5 $end
$upscope $end


$scope begin unnamed$$_6 $end
$upscope $end

$upscope $end

$upscope $end

$enddefinitions $end

#0
$dumpvars
xJ
xL
0!
xw
xv
x8
02
03
01
0/
xG
x@
xC
0c
0d
0b
0`
0^
0_
0]
0Z
0X
0W
0U
0T
xz
x7
0-
0.
0,
0)
0'
0&
0$
x9
0p
0j
0#
0"
xg
0e
xQ
b00000000000000000000000000000000 6
b0000 u
bxxxxxxxxxxxxxxxxxxxxxxxxxxxxxxxxxxxxxxxxxxxxxxxxxxxxxxxxxxxxxxxx K
bxxxxxxxxxxxxxxxxxxxxxxxxxxxxxxxxxxxxxxxxxxxxxxxxxxxxxxxxxxxxxxxx M
bxxxxxxxxxxxxxxxxxxxxxxxxxxxxxxxx I
b000000 m
bxx1x1x y
bxx x
b00000000000000000000000000000000 0
bxxxxxxxxxxxxxxxxxxxxxxxxxxxxxxxx F
bxxxxxxxxxxxxxxxxxxxxxxxxxxxxxxxx H
bxxxxxxxxxxxxxxxxxxxxxxxxxxxxxxxx >
bxxxxxxxxxxxxxxxxxxxxxxxxxxxxxxxx A
bxxxxxxxxxxxxxxxxxxxxxxxxxxxxxxxxxxxxxxxxxxxxxxxxxxxxxxxxxxxxxxxx ?
bxxxxxxxxxxxxxxxxxxxxxxxxxxxxxxxx B
bxxxxxxxxxxxxxxxxxxxxxxxxxxxxxxxx E
bxxxxxxxxxxxxxxxxxxxxxxxxxxxxxxxxxxxxxxxxxxxxxxxxxxxxxxxxxxxxxxxx D
b00000000000000000000000000000000 a
b00000000000000000000000000000000 [
b0000000000000000000000000000000000000000000000000000000000000000 \
b00000000000000000000000000000000 V
b0000000000000000000000000000000000000000000000000000000000000000 Y
b000000 t
b00 s
b00000000000000000000000000000000 q
b0000000000000000000000000000000000000000000000000000000000000000 r
b00000000000000000000000000000000 4
bxxxxxxxxxxxxxxxxxxxxxxxxxxxxxxxx ;
b00000000000000000000000000000000 *
b0000000000000000000000000000000000000000000000000000000000000000 +
b00000000000000000000000000000000 %
b0000000000000000000000000000000000000000000000000000000000000000 (
bxxxxxxxxxxxxxxxxxxxxxxxxxxxxxxxxxxxxxxxxxxxxxxxxxxxxxxxxxxxxxxxx :
b00000000000000000000000000000000 k
b0000000000000000000000000000000000000000000000000000000000000000 l
bxxxxxxxxxxxxxxxxxxxxxxxxxxxxxxxx f
bxxxxxxxxxxxxxxxxxxxxxxxxxxxxxxxxxxxxxxxxxxxxxxxxxxxxxxxxxxxxxxxx h
b000000 o
b00 n
b0000 i
b00000000000000000000000000000000 5
bxxxxxxxxxxxxxxxxxxxxxxxxxxxxxxxx O
bxxxxxxxxxxxxxxxxxxxxxxxxxxxxxxxx N
bxxxxxxxxxxxxxxxxxxxxxxxxxxxxxxxx P
bxxxxxxxxxxxxxxxxxxxxxxxxxxxxxxxx =
bxxxxxxxxxxxxxxxxxxxxxxxxxxxxxxxx <
0S
0R
$end
#2000
1!
1R
b00000000000000000000000000000000 f
#4000
0!
0R
#6000
1!
1R
1z
b111010 y
b00 x
1w
0v
#8000
0!
0R
#10000
1!
1R
#12000
0!
0R
#14000
1!
1R
#15000
1"
1S
b00000000000000000000000001010100 <
b00000000000000000000000000000000 =
#16000
0!
0R
#18000
1!
1R
xX
x'
bxxxxxxxxxxxxxxxxxxxxxxxxxxxxxxxxxxxxxxxxxxxxxxxxxxxxxxxxxxxxxxxx Y
bxxxxxxxxxxxxxxxxxxxxxxxxxxxxxxxxxxxxxxxxxxxxxxxxxxxxxxxxxxxxxxxx (
b000001 m
#19000
b00000000000000000000000000000001 =
#20000
0!
0R
#22000
1!
1R
b000010 m
xz
bxx1x1x y
bxx x
xw
xv
#23000
b00000000000000000000000000000010 =
#24000
0!
0R
#26000
1!
1R
b000011 m
#27000
b00000000000000000000000000000011 =
#28000
0!
0R
#30000
1!
1R
b000100 m
#31000
b00000000000000000000000000000100 =
#32000
0!
0R
#34000
1!
1R
b000101 m
#35000
b00000000000000000000000000000101 =
#36000
0!
0R
#38000
1!
1R
b000110 m
#39000
b00000000000000000000000000000110 =
#40000
0!
0R
#42000
1!
1R
b000111 m
#43000
b00000000000000000000000000000111 =
#44000
0!
0R
#46000
1!
1R
b001000 m
#47000
b00000000000000000000000000001000 =
#48000
0!
0R
#50000
1!
1R
b001001 m
#51000
b00000000000000000000000000001001 =
#52000
0!
0R
#54000
1!
1R
b001010 m
#55000
b00000000000000000000000000001010 =
#56000
0!
0R
#58000
1!
1R
b001011 m
#59000
b00000000000000000000000000001011 =
#60000
0!
0R
#62000
1!
1R
b001100 m
#63000
b00000000000000000000000000001100 =
#64000
0!
0R
#66000
1!
1R
b001101 m
#67000
b00000000000000000000000000001101 =
#68000
0!
0R
#70000
1!
1R
b001110 m
#71000
b00000000000000000000000000001110 =
#72000
0!
0R
#74000
1!
1R
b001111 m
#75000
b00000000000000000000000000001111 =
#76000
0!
0R
#78000
1!
1R
b010000 m
#79000
b00000000000000000000000000010000 =
#80000
0!
0R
#82000
1!
1R
b010001 m
#83000
b00000000000000000000000000010001 =
#84000
0!
0R
#86000
1!
1R
b010010 m
#87000
b00000000000000000000000000010010 =
#88000
0!
0R
#90000
1!
1R
b010011 m
#91000
b00000000000000000000000000010011 =
#92000
0!
0R
#94000
1!
1R
b010100 m
#95000
b00000000000000000000000000010100 =
#96000
0!
0R
#98000
1!
1R
b010101 m
#99000
b00000000000000000000000000010101 =
#100000
0!
0R
#102000
1!
1R
b010110 m
#103000
b00000000000000000000000000010110 =
#104000
0!
0R
#106000
1!
1R
b010111 m
#107000
b00000000000000000000000000010111 =
#108000
0!
0R
#110000
1!
1R
b011000 m
#111000
b00000000000000000000000000011000 =
#112000
0!
0R
#114000
1!
1R
b011001 m
#115000
b00000000000000000000000000011001 =
#116000
0!
0R
#118000
1!
1R
b011010 m
#119000
b00000000000000000000000000011010 =
#120000
0!
0R
#122000
1!
1R
b011011 m
#123000
b00000000000000000000000000011011 =
#124000
0!
0R
#126000
1!
1R
b011100 m
#127000
b00000000000000000000000000011100 =
#128000
0!
0R
#130000
1!
1R
b011101 m
#131000
b00000000000000000000000000011101 =
#132000
0!
0R
#134000
1!
1R
b011110 m
#135000
b00000000000000000000000000011110 =
#136000
0!
0R
#138000
1!
1R
b011111 m
#139000
b00000000000000000000000000011111 =
#140000
0!
0R
#142000
1!
1R
b100000 m
#143000
b00000000000000000000000000100000 =
#144000
0!
0R
#146000
1!
1R
b100001 m
#147000
b00000000000000000000000000100001 =
#148000
0!
0R
#150000
1!
1R
b100010 m
#151000
b00000000000000000000000000100010 =
#152000
0!
0R
#154000
1!
1R
b100011 m
#155000
b00000000000000000000000000100011 =
#156000
0!
0R
#158000
1!
1R
b100100 m
#159000
b00000000000000000000000000100100 =
#160000
0!
0R
#162000
1!
1R
b100101 m
#163000
b00000000000000000000000000100101 =
#164000
0!
0R
#166000
1!
1R
b100110 m
#167000
b00000000000000000000000000100110 =
#168000
0!
0R
#170000
1!
1R
b100111 m
#171000
b00000000000000000000000000100111 =
#172000
0!
0R
#174000
1!
1R
b101000 m
#175000
b00000000000000000000000000101000 =
#176000
0!
0R
#178000
1!
1R
b101001 m
#179000
b00000000000000000000000000101001 =
#180000
0!
0R
#182000
1!
1R
b101010 m
#183000
b00000000000000000000000000101010 =
#184000
0!
0R
#186000
1!
1R
b101011 m
#187000
b00000000000000000000000000101011 =
#188000
0!
0R
#190000
1!
1R
b101100 m
#191000
b00000000000000000000000000101100 =
#192000
0!
0R
#194000
1!
1R
b101101 m
#195000
b00000000000000000000000000101101 =
#196000
0!
0R
#198000
1!
1R
b101110 m
#199000
b00000000000000000000000000101110 =
#200000
0!
0R
#202000
1!
1R
b101111 m
#203000
b00000000000000000000000000101111 =
#204000
0!
0R
#206000
1!
1R
b110000 m
#207000
b00000000000000000000000000110000 =
#208000
0!
0R
#210000
1!
1R
b110001 m
#211000
b00000000000000000000000000110001 =
#212000
0!
0R
#214000
1!
1R
b110010 m
#215000
b00000000000000000000000000110010 =
#216000
0!
0R
#218000
1!
1R
b110011 m
#219000
b00000000000000000000000000110011 =
#220000
0!
0R
#222000
1!
1R
b110100 m
#223000
b00000000000000000000000000110100 =
#224000
0!
0R
#226000
1!
1R
b110101 m
#227000
b00000000000000000000000000110101 =
#228000
0!
0R
#230000
1!
1R
b110110 m
#231000
b00000000000000000000000000110110 =
#232000
0!
0R
#234000
1!
1R
b110111 m
#235000
b00000000000000000000000000110111 =
#236000
0!
0R
#238000
1!
1R
b111000 m
#239000
b00000000000000000000000000111000 =
#240000
0!
0R
#242000
1!
1R
b111001 m
#243000
b00000000000000000000000000111001 =
#244000
0!
0R
#246000
1!
1R
b111010 m
#247000
b00000000000000000000000000111010 =
#248000
0!
0R
#250000
1!
1R
b111011 m
#251000
b00000000000000000000000000111011 =
#252000
0!
0R
#254000
1!
1R
b111100 m
#255000
b00000000000000000000000000111100 =
#256000
0!
0R
#258000
1!
1R
b111101 m
#259000
b00000000000000000000000000111101 =
#260000
0!
0R
#262000
1!
1R
b111110 m
#263000
b00000000000000000000000000111110 =
#264000
0!
0R
#266000
1!
1R
b111111 m
#267000
b00000000000000000000000000111111 =
#268000
0!
0R
#270000
1!
1R
b0001 i
1b
11
1]
1,
1T
1#
#271000
b00000000000000000000000001000000 =
b00000000000000000000000000000001 5
#272000
0!
0R
#274000
1!
1R
1z
b111010 y
b00 x
1w
0v
b0000000000000000000000000000000000000000000000000000000000000000 h
0g
#276000
0!
0R
#278000
1!
1R
0X
0'
b0000000000000000000000000000000000000000000000000000000000000000 Y
b0000000000000000000000000000000000000000000000000000000000000000 (
#279000
b00000000000000000000000000000010 5
b11011110101011011011111011101111 I
0J
b0000000000000000000000000000000000000000000000000000000000000000 K
b11011110101011011011111011101111 B
#280000
0!
0R
#282000
1!
1R
#283000
1$
1U
b11011110101011011011111011101111 %
b11011110101011011011111011101111 V
#284000
0!
0R
#286000
1!
1R
1e
b11011110101011011011111011101111 f
#287000
b00000000000000000000000000000000 E
0$
0U
#288000
0!
0R
#290000
1!
1R
0e
1W
1&
#291000
b00000000000000000000000000000001 E
0C
b0000000000000000000000000000000000000000000000000000000000000000 D
0L
b0000000000000000000000000000000000000000000000000000000000000000 M
#292000
0!
0R
#294000
1!
1R
b00000000000000000000000000000001 6
0W
0&
#296000
0!
0R
#298000
1!
1R
#299000
b00000000000000000000000000000011 5
b00000000000000000001000000000001 >
b1010101010101010101110111011101111001100110011000000000000000001 ?
b00000000000000000000000011001000 <
b00000000000000000000000000000000 =
#300000
0!
0R
#302000
1!
1R
#303000
1)
1Z
b00000000000000000001000000000001 *
b00000000000000000001000000000001 [
b1010101010101010101110111011101111001100110011000000000000000001 +
b1010101010101010101110111011101111001100110011000000000000000001 \
#304000
0!
0R
#306000
1!
1R
b0010 i
0b
01
0]
0,
0T
0#
1j
b00000000000000000001000000000001 k
b1010101010101010101110111011101111001100110011000000000000000001 l
#307000
b00000000000000000000000000000000 A
0)
0Z
#308000
0!
0R
#310000
1!
1R
b0011 i
#311000
b00000000000000000000000000000001 A
#312000
0!
0R
#314000
1!
1R
b0100 i
#315000
b00000000000000000000000000000010 A
#316000
0!
0R
#318000
1!
1R
b0101 i
b111010 o
#319000
b00000000000000000000000000000011 A
#320000
0!
0R
#322000
1!
1R
1^
1-
b0001 i
1b
11
1]
1,
1T
1#
#323000
b00000000000000000000000000000100 A
1@
17
b00000000000000000001000000000001 I
1J
b1010101010101010101110111011101111001100110011000000000000000001 K
b00000000000000000001000000000001 B
#324000
0!
0R
#326000
1!
1R
0^
0-
#327000
1$
1U
b00000000000000000001000000000001 %
b00000000000000000001000000000001 V
#328000
0!
0R
#330000
1!
1R
1e
b00000000000000000001000000000001 f
b1010101010101010101110111011101111001100110011000000000000000001 h
1g
#331000
b00000000000000000000000000000000 E
0$
0U
#332000
0!
0R
#334000
1!
1R
0e
1W
1&
1X
1'
b1010101010101010101110111011101111001100110011000000000000000001 Y
b1010101010101010101110111011101111001100110011000000000000000001 (
#335000
b00000000000000000000000000000001 E
1C
b1010101010101010101110111011101111001100110011000000000000000001 D
1L
b1010101010101010101110111011101111001100110011000000000000000001 M
b11111111111111111111111111111111 I
0J
b0000000000000000000000000000000000000000000000000000000000000000 K
b11111111111111111111111111111111 B
#336000
0!
0R
#338000
1!
1R
b00000000000000000000000000000010 6
0W
0&
#339000
1$
1U
b11111111111111111111111111111111 %
b11111111111111111111111111111111 V
#340000
0!
0R
#342000
1!
1R
1e
b11111111111111111111111111111111 f
b0000000000000000000000000000000000000000000000000000000000000000 h
0g
#343000
b00000000000000000000000000000000 E
0$
0U
#344000
0!
0R
#346000
1!
1R
0e
1W
1&
0X
0'
b0000000000000000000000000000000000000000000000000000000000000000 Y
b0000000000000000000000000000000000000000000000000000000000000000 (
#347000
b00000000000000000000000000000001 E
0C
b0000000000000000000000000000000000000000000000000000000000000000 D
0L
b0000000000000000000000000000000000000000000000000000000000000000 M
#348000
0!
0R
#350000
1!
1R
b00000000000000000000000000000011 6
0W
0&
#352000
0!
0R
#354000
1!
1R
#355000
b00000000000000000000000000000100 5
b00000000000000000000000000000001 ;
b00000000000000000010000000000010 >
b1010101010101010101110111011101111001100110011000000000000000010 ?
#356000
0!
0R
#358000
1!
1R
#359000
1)
1Z
b00000000000000000010000000000010 *
b00000000000000000010000000000010 [
b1010101010101010101110111011101111001100110011000000000000000010 +
b1010101010101010101110111011101111001100110011000000000000000010 \
#360000
0!
0R
#362000
1!
1R
b0010 i
0b
01
0]
0,
0T
0#
b00000000000000000010000000000010 k
b1010101010101010101110111011101111001100110011000000000000000010 l
#363000
b00000000000000000000000000000000 A
0)
0Z
#364000
0!
0R
#366000
1!
1R
b0011 i
0z
b111111 y
b01 x
#367000
b00000000000000000000000000000001 A
#368000
0!
0R
#370000
1!
1R
b0100 i
#371000
b00000000000000000000000000000010 A
#372000
0!
0R
#374000
1!
1R
b0101 i
b01 n
b111111 o
#375000
b00000000000000000000000000000011 A
#376000
0!
0R
#378000
1!
1R
1^
1-
b0001 i
1b
11
1]
1,
1T
1#
1z
b111010 y
b00 x
#379000
b00000000000000000000000000000100 A
b00000000000000000000000000000010 ;
b00000000000000000011000000000011 >
b1010101010101010101110111011101111001100110011000000000000000011 ?
#380000
0!
0R
#382000
1!
1R
0^
0-
#383000
1)
1Z
b00000000000000000011000000000011 *
b00000000000000000011000000000011 [
b1010101010101010101110111011101111001100110011000000000000000011 +
b1010101010101010101110111011101111001100110011000000000000000011 \
#384000
0!
0R
#386000
1!
1R
b0010 i
0b
01
0]
0,
0T
0#
b00000000000000000011000000000011 k
b1010101010101010101110111011101111001100110011000000000000000011 l
#387000
b00000000000000000000000000000000 A
0)
0Z
#388000
0!
0R
#390000
1!
1R
b0011 i
0z
b011011 y
b10 x
#391000
b00000000000000000000000000000001 A
#392000
0!
0R
#394000
1!
1R
b0100 i
#395000
b00000000000000000000000000000010 A
#396000
0!
0R
#398000
1!
1R
b0101 i
b10 n
b011011 o
#399000
b00000000000000000000000000000011 A
#400000
0!
0R
#402000
1!
1R
1^
1-
b0001 i
1b
11
1]
1,
1T
1#
1z
b111010 y
b00 x
#403000
b00000000000000000000000000000100 A
b00000000000000000000000000000011 ;
b00000000000000000100000000000100 >
b1010101010101010101110111011101111001100110011000000000000000100 ?
#404000
0!
0R
#406000
1!
1R
0^
0-
#407000
1)
1Z
b00000000000000000100000000000100 *
b00000000000000000100000000000100 [
b1010101010101010101110111011101111001100110011000000000000000100 +
b1010101010101010101110111011101111001100110011000000000000000100 \
#408000
0!
0R
#410000
1!
1R
b0010 i
0b
01
0]
0,
0T
0#
b00000000000000000100000000000100 k
b1010101010101010101110111011101111001100110011000000000000000100 l
#411000
b00000000000000000000000000000000 A
0)
0Z
#412000
0!
0R
#414000
1!
1R
b0011 i
0z
b100000 y
b11 x
#415000
b00000000000000000000000000000001 A
#416000
0!
0R
#418000
1!
1R
b0100 i
#419000
b00000000000000000000000000000010 A
#420000
0!
0R
#422000
1!
1R
b0101 i
b11 n
b100000 o
#423000
b00000000000000000000000000000011 A
#424000
0!
0R
#426000
1!
1R
1^
1-
b0001 i
1b
11
1]
1,
1T
1#
1z
b111010 y
b00 x
#427000
b00000000000000000000000000000100 A
b00000000000000000000000000000100 ;
b00000000000000000101000000000101 >
b1010101010101010101110111011101111001100110011000000000000000101 ?
#428000
0!
0R
#430000
1!
1R
0^
0-
#431000
1)
1Z
b00000000000000000101000000000101 *
b00000000000000000101000000000101 [
b1010101010101010101110111011101111001100110011000000000000000101 +
b1010101010101010101110111011101111001100110011000000000000000101 \
#432000
0!
0R
#434000
1!
1R
b0010 i
0b
01
0]
0,
0T
0#
b00000000000000000101000000000101 k
b1010101010101010101110111011101111001100110011000000000000000101 l
#435000
b00000000000000000000000000000000 A
0)
0Z
#436000
0!
0R
#438000
1!
1R
b0011 i
0z
0w
#439000
b00000000000000000000000000000001 A
#440000
0!
0R
#442000
1!
1R
b0100 i
#443000
b00000000000000000000000000000010 A
#444000
0!
0R
#446000
1!
1R
b0101 i
1p
b0001 u
b00 n
b111010 o
b00000000000000000001000000000001 q
b1010101010101010101110111011101111001100110011000000000000000001 r
b01 s
b111111 t
#447000
b00000000000000000000000000000011 A
#448000
0!
0R
#450000
1!
1R
b0110 i
1z
b111111 y
b01 x
1w
#451000
b00000000000000000000000000000100 A
#452000
0!
0R
#454000
1!
1R
b0111 i
0z
b111010 y
b00 x
#455000
b00000000000000000000000000000101 A
#456000
0!
0R
#458000
1!
1R
b1000 i
#459000
b00000000000000000000000000000110 A
#460000
0!
0R
#462000
1!
1R
b0110 i
b0010 u
b00000000000000000010000000000010 q
b1010101010101010101110111011101111001100110011000000000000000010 r
b10 s
1z
b011011 t
#463000
b00000000000000000000000000000111 A
#464000
0!
0R
#466000
1!
1R
b0111 i
0z
#467000
b00000000000000000000000000001000 A
#468000
0!
0R
#470000
1!
1R
b1000 i
#471000
b00000000000000000000000000001001 A
#472000
0!
0R
#474000
1!
1R
b0110 i
b0011 u
b00000000000000000011000000000011 q
b1010101010101010101110111011101111001100110011000000000000000011 r
b11 s
1z
b101111 t
#475000
b00000000000000000000000000001010 A
#476000
0!
0R
#478000
1!
1R
b0111 i
#479000
b00000000000000000000000000001011 A
#480000
0!
0R
#482000
1!
1R
b1000 i
#483000
b00000000000000000000000000001100 A
#484000
0!
0R
#486000
1!
1R
1^
1-
b0001 i
1b
11
1]
1,
1T
1#
0p
b0000 u
#487000
b00000000000000000000000000001101 A
b00000000000000000000000000000101 ;
b00000000000000000110000000000110 >
b1010101010101010101110111011101111001100110011000000000000000110 ?
#488000
0!
0R
#490000
1!
1R
0^
0-
#491000
1)
1Z
b00000000000000000110000000000110 *
b00000000000000000110000000000110 [
b1010101010101010101110111011101111001100110011000000000000000110 +
b1010101010101010101110111011101111001100110011000000000000000110 \
#492000
0!
0R
#494000
1!
1R
b0010 i
0b
01
0]
0,
0T
0#
b00000000000000000110000000000110 k
b1010101010101010101110111011101111001100110011000000000000000110 l
#495000
b00000000000000000000000000000000 A
0)
0Z
#496000
0!
0R
#498000
1!
1R
b0011 i
b100101 y
b11 x
#499000
b00000000000000000000000000000001 A
#500000
0!
0R
#502000
1!
1R
b0100 i
#503000
b00000000000000000000000000000010 A
#504000
0!
0R
#506000
1!
1R
b0101 i
b11 n
b100101 o
#507000
b00000000000000000000000000000011 A
#508000
0!
0R
#510000
1!
1R
1^
1-
b0001 i
1b
11
1]
1,
1T
1#
b111010 y
b00 x
#511000
b00000000000000000000000000000100 A
b00000000000000000000000000000110 ;
b00000000000000000111000000000111 >
b1010101010101010101110111011101111001100110011000000000000000111 ?
#512000
0!
0R
#514000
1!
1R
0^
0-
#515000
1)
1Z
b00000000000000000111000000000111 *
b00000000000000000111000000000111 [
b1010101010101010101110111011101111001100110011000000000000000111 +
b1010101010101010101110111011101111001100110011000000000000000111 \
#516000
0!
0R
#518000
1!
1R
b0010 i
0b
01
0]
0,
0T
0#
b00000000000000000111000000000111 k
b1010101010101010101110111011101111001100110011000000000000000111 l
#519000
b00000000000000000000000000000000 A
0)
0Z
#520000
0!
0R
#522000
1!
1R
b0011 i
0z
0w
#523000
b00000000000000000000000000000001 A
#524000
0!
0R
#526000
1!
1R
b0100 i
#527000
b00000000000000000000000000000010 A
#528000
0!
0R
#530000
1!
1R
b0101 i
1p
b0001 u
b00 n
b111010 o
b00000000000000000101000000000101 q
b1010101010101010101110111011101111001100110011000000000000000101 r
b01 s
b111111 t
#531000
b00000000000000000000000000000011 A
#532000
0!
0R
#534000
1!
1R
b0110 i
1z
b111111 y
b01 x
1w
#535000
b00000000000000000000000000000100 A
#536000
0!
0R
#538000
1!
1R
b0111 i
0z
b111010 y
b00 x
#539000
b00000000000000000000000000000101 A
#540000
0!
0R
#542000
1!
1R
b1000 i
#543000
b00000000000000000000000000000110 A
#544000
0!
0R
#546000
1!
1R
b0110 i
b0010 u
b00000000000000000001000000000001 q
b1010101010101010101110111011101111001100110011000000000000000001 r
b10 s
1z
b011011 t
#547000
b00000000000000000000000000000111 A
#548000
0!
0R
#550000
1!
1R
b0111 i
0z
#551000
b00000000000000000000000000001000 A
#552000
0!
0R
#554000
1!
1R
b1000 i
#555000
b00000000000000000000000000001001 A
#556000
0!
0R
#558000
1!
1R
b0110 i
b0011 u
b00000000000000000010000000000010 q
b1010101010101010101110111011101111001100110011000000000000000010 r
b11 s
1z
b101111 t
#559000
b00000000000000000000000000001010 A
#560000
0!
0R
#562000
1!
1R
b0111 i
0z
#563000
b00000000000000000000000000001011 A
#564000
0!
0R
#566000
1!
1R
b1000 i
#567000
b00000000000000000000000000001100 A
#568000
0!
0R
#570000
1!
1R
b0110 i
b0100 u
b00000000000000000011000000000011 q
b1010101010101010101110111011101111001100110011000000000000000011 r
b00 s
1z
b111010 t
#571000
b00000000000000000000000000001101 A
#572000
0!
0R
#574000
1!
1R
b0111 i
0z
0w
1v
#575000
b00000000000000000000000000001110 A
#576000
0!
0R
#578000
1!
1R
b1000 i
#579000
b00000000000000000000000000001111 A
#580000
0!
0R
#582000
1!
1R
b0110 i
b0101 u
b00000000000000000111000000000111 q
b1010101010101010101110111011101111001100110011000000000000000111 r
b01 s
1z
b111111 t
#583000
b00000000000000000000000000010000 A
#584000
0!
0R
#586000
1!
1R
b0111 i
0z
1w
0v
#587000
b00000000000000000000000000010001 A
#588000
0!
0R
#590000
1!
1R
b1000 i
#591000
b00000000000000000000000000010010 A
#592000
0!
0R
#594000
1!
1R
b0110 i
b0110 u
b00000000000000000101000000000101 q
b1010101010101010101110111011101111001100110011000000000000000101 r
b10 s
1z
b011011 t
#595000
b00000000000000000000000000010011 A
#596000
0!
0R
#598000
1!
1R
b0111 i
0z
#599000
b00000000000000000000000000010100 A
#600000
0!
0R
#602000
1!
1R
b1000 i
#603000
b00000000000000000000000000010101 A
#604000
0!
0R
#606000
1!
1R
b0110 i
b0111 u
b00000000000000000001000000000001 q
b1010101010101010101110111011101111001100110011000000000000000001 r
b11 s
1z
b101010 t
#607000
b00000000000000000000000000010110 A
#608000
0!
0R
#610000
1!
1R
b0111 i
#611000
b00000000000000000000000000010111 A
#612000
0!
0R
#614000
1!
1R
b1000 i
#615000
b00000000000000000000000000011000 A
#616000
0!
0R
#618000
1!
1R
1^
1-
b0001 i
1b
11
1]
1,
1T
1#
0p
b0000 u
#619000
b00000000000000000000000000011001 A
b00000000000000000000000000000111 ;
b00000000000000001000000000001000 >
b1010101010101010101110111011101111001100110011000000000000001000 ?
#620000
0!
0R
#622000
1!
1R
0^
0-
#623000
1)
1Z
b00000000000000001000000000001000 *
b00000000000000001000000000001000 [
b1010101010101010101110111011101111001100110011000000000000001000 +
b1010101010101010101110111011101111001100110011000000000000001000 \
#624000
0!
0R
#626000
1!
1R
b0010 i
0b
01
0]
0,
0T
0#
b00000000000000001000000000001000 k
b1010101010101010101110111011101111001100110011000000000000001000 l
#627000
b00000000000000000000000000000000 A
0)
0Z
#628000
0!
0R
#630000
1!
1R
b0011 i
b111110 y
b11 x
#631000
b00000000000000000000000000000001 A
#632000
0!
0R
#634000
1!
1R
b0100 i
#635000
b00000000000000000000000000000010 A
#636000
0!
0R
#638000
1!
1R
b0101 i
b11 n
b111110 o
#639000
b00000000000000000000000000000011 A
#640000
0!
0R
#642000
1!
1R
1^
1-
b0001 i
1b
11
1]
1,
1T
1#
b111010 y
b00 x
#643000
b00000000000000000000000000000100 A
b00000000000000000000000000001000 ;
b00000000000000000000000000000000 ;
b00000000000000000001000000000001 I
1J
b1010101010101010101110111011101111001100110011000000000000000001 K
b00000000000000000001000000000001 B
#644000
0!
0R
#646000
1!
1R
0^
0-
#647000
1$
1U
b00000000000000000001000000000001 %
b00000000000000000001000000000001 V
#648000
0!
0R
#650000
1!
1R
1e
b00000000000000000001000000000001 f
b1010101010101010101110111011101111001100110011000000000000000001 h
1g
#651000
b00000000000000000000000000000000 E
0$
0U
#652000
0!
0R
#654000
1!
1R
0e
1W
1&
1X
1'
b1010101010101010101110111011101111001100110011000000000000000001 Y
b1010101010101010101110111011101111001100110011000000000000000001 (
#655000
b00000000000000000000000000000001 E
1C
b1010101010101010101110111011101111001100110011000000000000000001 D
1L
b1010101010101010101110111011101111001100110011000000000000000001 M
b00000000000000000000000000000001 ;
b00000000000000000010000000000010 I
b1010101010101010101110111011101111001100110011000000000000000010 K
b00000000000000000010000000000010 B
#656000
0!
0R
#658000
1!
1R
b00000000000000000000000000000100 6
0W
0&
#659000
1$
1U
b00000000000000000010000000000010 %
b00000000000000000010000000000010 V
#660000
0!
0R
#662000
1!
1R
1e
b00000000000000000010000000000010 f
b1010101010101010101110111011101111001100110011000000000000000010 h
#663000
b00000000000000000000000000000000 E
0$
0U
