HFT_Modules/build/tob_dump.vcd
$date
	Mon Mar 23 17:39:16 2026
$end

$version
	Synopsys VCS version V-2023.12-SP2-1_Full64
$end

$timescale
	100ps
$end

$comment Csum: 1 20fb14adc2e3fd61 $end


$scope module top_of_book_tb $end
$var reg 1 ! clk $end
$var reg 1 " rst_n $end
$var integer 32 # fail_count $end
$var integer 32 $ fb $end

$scope task print_bbo $end
$upscope $end


$scope task print_book $end
$var reg 32 % s [31:0] $end

$scope begin unnamed$$_0 $end
$upscope $end

$upscope $end


$scope task check_bid $end
$var reg 32 & ep [31:0] $end
$var reg 32 ' eq [31:0] $end
$upscope $end


$scope task check_ask $end
$var reg 32 ( ep [31:0] $end
$var reg 32 ) eq [31:0] $end
$upscope $end


$scope task check_level $end
$var reg 1 * side_is_bid $end
$var reg 32 + s [31:0] $end
$var integer 32 , lvl $end
$var reg 32 - ep [31:0] $end
$var reg 32 . eq [31:0] $end
$var reg 32 / gp [31:0] $end
$var reg 32 0 gq [31:0] $end
$upscope $end


$scope task pr $end
$upscope $end

$var reg 402 1 update [401:0] $end
$var reg 138 2 tob [137:0] $end

$scope module dut $end
$var reg 1 3 clk $end
$var reg 1 4 rst_n $end
$var reg 9 5 sym [8:0] $end
$var reg 1 6 sym_valid $end
$var reg 3 7 msg_type [2:0] $end
$var reg 1 8 do_remove $end
$var reg 1 9 do_add $end
$var reg 32 : rm_price [31:0] $end
$var reg 32 ; rm_qty [31:0] $end
$var reg 32 < add_price [31:0] $end
$var reg 32 = add_qty [31:0] $end
$var reg 1 > op_side $end
$var reg 1 ? is_bid $end
$var reg 1 @ rm_found $end
$var reg 1 A add_match_found $end
$var reg 1 B add_inserted $end
$var reg 3 C better_than [2:0] $end
$var reg 402 D in_update [401:0] $end
$var reg 138 E out_tob [137:0] $end

$scope begin unnamed$$_0 $end
$upscope $end


$scope begin unnamed$$_1 $end
$upscope $end


$scope begin unnamed$$_2 $end

$scope begin unnamed$$_3 $end
$upscope $end

$upscope $end


$scope begin unnamed$$_4 $end
$upscope $end


$scope begin unnamed$$_5 $end
$upscope $end


$scope begin unnamed$$_6 $end
$upscope $end


$scope begin unnamed$$_7 $end

$scope begin unnamed$$_8 $end
$upscope $end

$upscope $end


$scope begin unnamed$$_9 $end

$scope begin unnamed$$_10 $end
$upscope $end

$upscope $end


$scope begin unnamed$$_11 $end
$upscope $end


$scope begin unnamed$$_12 $end
$upscope $end

$upscope $end

$upscope $end

$enddefinitions $end

#0
$dumpvars
0B
0A
x*
0!
09
08
04
1?
0>
0@
0"
06
b000000000000000000000000000000000000000000000000000000000000000000000000000000000000000000000000000000000000000000000000000000000000000000000000000000000000000000000000000000000000000000000000000000000000000000000000000000000000000000000000000000000000000000000000000000000000000000000000000000000000000000000000000000000000000000000000000000000000000000000000000000000000000000000000000000000000000000 D
bxxxxxxxxxxxxxxxxxxxxxxxxxxxxxxxxxxxxxxxxxxxxxxxxxxxxxxxxxxxxxxxxxxxxxxxxxxxxxxxxxxxxxxxxxxxxxxxxxxxxxxxxxxxxxxxxxxxxxxxxxxxxxxxxxxxxxxxxxx E
bxxxxxxxxxxxxxxxxxxxxxxxxxxxxxxxxxxxxxxxxxxxxxxxxxxxxxxxxxxxxxxxxxxxxxxxxxxxxxxxxxxxxxxxxxxxxxxxxxxxxxxxxxxxxxxxxxxxxxxxxxxxxxxxxxxxxxxxxxx 2
b000000000000000000000000000000000000000000000000000000000000000000000000000000000000000000000000000000000000000000000000000000000000000000000000000000000000000000000000000000000000000000000000000000000000000000000000000000000000000000000000000000000000000000000000000000000000000000000000000000000000000000000000000000000000000000000000000000000000000000000000000000000000000000000000000000000000000000 1
b00000000000000000000000000000000 <
b00000000000000000000000000000000 =
bxxx C
bxxxxxxxxxxxxxxxxxxxxxxxxxxxxxxxx (
bxxxxxxxxxxxxxxxxxxxxxxxxxxxxxxxx )
bxxxxxxxxxxxxxxxxxxxxxxxxxxxxxxxx &
bxxxxxxxxxxxxxxxxxxxxxxxxxxxxxxxx '
bxxxxxxxxxxxxxxxxxxxxxxxxxxxxxxxx -
bxxxxxxxxxxxxxxxxxxxxxxxxxxxxxxxx .
bxxxxxxxxxxxxxxxxxxxxxxxxxxxxxxxx /
bxxxxxxxxxxxxxxxxxxxxxxxxxxxxxxxx 0
bxxxxxxxxxxxxxxxxxxxxxxxxxxxxxxxx ,
bxxxxxxxxxxxxxxxxxxxxxxxxxxxxxxxx +
b000000000 5
b00000000000000000000000000000000 #
bxxxxxxxxxxxxxxxxxxxxxxxxxxxxxxxx $
b000 7
bxxxxxxxxxxxxxxxxxxxxxxxxxxxxxxxx %
b00000000000000000000000000000000 :
b00000000000000000000000000000000 ;
03
$end
#20
1!
13
b000000000000000000000000000000000000000000000000000000000000000000000000000000000000000000000000000000000000000000000000000000000000000000 E
b000000000000000000000000000000000000000000000000000000000000000000000000000000000000000000000000000000000000000000000000000000000000000000 2
b111 C
#40
0!
03
#60
1!
13
#80
0!
03
#100
1!
13
#120
0!
03
#140
1!
13
#150
1"
14
#160
0!
03
#180
1!
13
#200
0!
03
#220
1!
13
#230
b00000000000000000000000000000000 $
b110000000000000000000000000000000010100000000000000000000000000000000000000000000000000000000000000000000000000000000000000000000000100000000000000000000000000000000000000000000000000000000000000000000000000000000011000011010100000000000000000000000000001100100000000000000000000000000000000000000000000000000000000000000000000000010100000000000000000000000000000000000000000000000000000000000000000000 1
b110000000000000000000000000000000010100000000000000000000000000000000000000000000000000000000000000000000000000000000000000000000000100000000000000000000000000000000000000000000000000000000000000000000000000000000011000011010100000000000000000000000000001100100000000000000000000000000000000000000000000000000000000000000000000000010100000000000000000000000000000000000000000000000000000000000000000000 D
16
b000000101 5
b00000000000000000000000001100100 =
b00000000000000000110000110101000 <
19
1B
#240
0!
03
#260
1!
13
b100000010100000000000000000110000110101000000000000000000000000000011001000000000000000000000000000000000000000000000000000000000000000000 E
b100000010100000000000000000110000110101000000000000000000000000000011001000000000000000000000000000000000000000000000000000000000000000000 2
b110 C
0B
1A
#270
b000000000000000000000000000000000000000000000000000000000000000000000000000000000000000000000000000000000000000000000000000000000000000000000000000000000000000000000000000000000000000000000000000000000000000000000000000000000000000000000000000000000000000000000000000000000000000000000000000000000000000000000000000000000000000000000000000000000000000000000000000000000000000000000000000000000000000000 1
b000000000000000000000000000000000000000000000000000000000000000000000000000000000000000000000000000000000000000000000000000000000000000000000000000000000000000000000000000000000000000000000000000000000000000000000000000000000000000000000000000000000000000000000000000000000000000000000000000000000000000000000000000000000000000000000000000000000000000000000000000000000000000000000000000000000000000000 D
06
b000000000 5
b00000000000000000000000000000000 =
b00000000000000000000000000000000 <
09
0A
b111 C
#280
0!
03
#300
1!
13
b000000000000000000000000000110000110101000000000000000000000000000011001000000000000000000000000000000000000000000000000000000000000000000 E
b000000000000000000000000000110000110101000000000000000000000000000011001000000000000000000000000000000000000000000000000000000000000000000 2
#310
b110000000000000000000000000000000010100000000000000000000000000000000000000000000000000000000000000000000000000000000000000000000001000000000000000000000000000000000000000000000000000000000000000000000000000000000011000100111000000000000000000000000000011001000000000000000000000000000000000000000000000000000000000000000000000000010100000000000000000000000000000000000000000000000000000000000000000000 1
b110000000000000000000000000000000010100000000000000000000000000000000000000000000000000000000000000000000000000000000000000000000001000000000000000000000000000000000000000000000000000000000000000000000000000000000011000100111000000000000000000000000000011001000000000000000000000000000000000000000000000000000000000000000000000000010100000000000000000000000000000000000000000000000000000000000000000000 D
16
b000000101 5
b00000000000000000000000011001000 =
b00000000000000000110001001110000 <
19
1B
#320
0!
03
#340
1!
13
b100000010100000000000000000110001001110000000000000000000000000000110010000000000000000000000000000000000000000000000000000000000000000000 E
b100000010100000000000000000110001001110000000000000000000000000000110010000000000000000000000000000000000000000000000000000000000000000000 2
b110 C
0B
1A
#350
b000000000000000000000000000000000000000000000000000000000000000000000000000000000000000000000000000000000000000000000000000000000000000000000000000000000000000000000000000000000000000000000000000000000000000000000000000000000000000000000000000000000000000000000000000000000000000000000000000000000000000000000000000000000000000000000000000000000000000000000000000000000000000000000000000000000000000000 1
b000000000000000000000000000000000000000000000000000000000000000000000000000000000000000000000000000000000000000000000000000000000000000000000000000000000000000000000000000000000000000000000000000000000000000000000000000000000000000000000000000000000000000000000000000000000000000000000000000000000000000000000000000000000000000000000000000000000000000000000000000000000000000000000000000000000000000000 D
06
b000000000 5
b00000000000000000000000000000000 =
b00000000000000000000000000000000 <
09
0A
b100 C
b111 C
#360
0!
03
#380
1!
13
b000000000000000000000000000110001001110000000000000000000000000000110010000000000000000000000000000000000000000000000000000000000000000000 E
b000000000000000000000000000110001001110000000000000000000000000000110010000000000000000000000000000000000000000000000000000000000000000000 2
#390
b110000000000000000000000000000000010100000000000000000000000000000000000000000000000000000000000000000000000000000000000000000000001100000000000000000000000000000000000000000000000000000000000000000000000000000000011000100000110000000000000000000000000010010110000000000000000000000000000000000000000000000000000000000000000000000010100000000000000000000000000000000000000000000000000000000000000000000 1
b110000000000000000000000000000000010100000000000000000000000000000000000000000000000000000000000000000000000000000000000000000000001100000000000000000000000000000000000000000000000000000000000000000000000000000000011000100000110000000000000000000000000010010110000000000000000000000000000000000000000000000000000000000000000000000010100000000000000000000000000000000000000000000000000000000000000000000 D
16
b000000101 5
b00000000000000000000000010010110 =
b00000000000000000110001000001100 <
19
1B
b110 C
#400
0!
03
#420
1!
13
b100000010100000000000000000110001001110000000000000000000000000000110010000000000000000000000000000000000000000000000000000000000000000000 E
b100000010100000000000000000110001001110000000000000000000000000000110010000000000000000000000000000000000000000000000000000000000000000000 2
b100 C
0B
1A
#430
b000000000000000000000000000000000000000000000000000000000000000000000000000000000000000000000000000000000000000000000000000000000000000000000000000000000000000000000000000000000000000000000000000000000000000000000000000000000000000000000000000000000000000000000000000000000000000000000000000000000000000000000000000000000000000000000000000000000000000000000000000000000000000000000000000000000000000000 1
b000000000000000000000000000000000000000000000000000000000000000000000000000000000000000000000000000000000000000000000000000000000000000000000000000000000000000000000000000000000000000000000000000000000000000000000000000000000000000000000000000000000000000000000000000000000000000000000000000000000000000000000000000000000000000000000000000000000000000000000000000000000000000000000000000000000000000000 D
06
b000000000 5
b00000000000000000000000000000000 =
b00000000000000000000000000000000 <
09
0A
b000 C
b111 C
#440
0!
03
#460
1!
13
b000000000000000000000000000110001001110000000000000000000000000000110010000000000000000000000000000000000000000000000000000000000000000000 E
b000000000000000000000000000110001001110000000000000000000000000000110010000000000000000000000000000000000000000000000000000000000000000000 2
#470
b00000000000000000000000000000101 %
b00000000000000000110001001110000 &
b00000000000000000000000011001000 '
1*
b00000000000000000000000000000101 +
b00000000000000000000000000000001 ,
b00000000000000000110001000001100 -
b00000000000000000000000010010110 .
b00000000000000000110001000001100 /
b00000000000000000000000010010110 0
b00000000000000000000000000000010 ,
b00000000000000000110000110101000 -
b00000000000000000000000001100100 .
b00000000000000000110000110101000 /
b00000000000000000000000001100100 0
b110000000000000000000000000000000010100000000000000000000000000000000000000000000000000000000000000000000000000000000000000000000010000000000000000000000000000000000000000000000000000000000000000000000000000000000011000110011100000000000000000000000000100101100000000000000000000000000000000001000000000000000000000000000000000000010100000000000000000000000000000000000000000000000000000000000000000000 1
b110000000000000000000000000000000010100000000000000000000000000000000000000000000000000000000000000000000000000000000000000000000010000000000000000000000000000000000000000000000000000000000000000000000000000000000011000110011100000000000000000000000000100101100000000000000000000000000000000001000000000000000000000000000000000000010100000000000000000000000000000000000000000000000000000000000000000000 D
16
b000000101 5
1>
0?
b00000000000000000000000100101100 =
b00000000000000000110001100111000 <
19
1B
#480
0!
03
#500
1!
13
b100000010100000000000000000110001001110000000000000000000000000000110010000000000000000000011000110011100000000000000000000000000100101100 E
b100000010100000000000000000110001001110000000000000000000000000000110010000000000000000000011000110011100000000000000000000000000100101100 2
b110 C
0B
1A
#510
b000000000000000000000000000000000000000000000000000000000000000000000000000000000000000000000000000000000000000000000000000000000000000000000000000000000000000000000000000000000000000000000000000000000000000000000000000000000000000000000000000000000000000000000000000000000000000000000000000000000000000000000000000000000000000000000000000000000000000000000000000000000000000000000000000000000000000000 1
b000000000000000000000000000000000000000000000000000000000000000000000000000000000000000000000000000000000000000000000000000000000000000000000000000000000000000000000000000000000000000000000000000000000000000000000000000000000000000000000000000000000000000000000000000000000000000000000000000000000000000000000000000000000000000000000000000000000000000000000000000000000000000000000000000000000000000000 D
06
b000000000 5
0>
1?
b00000000000000000000000000000000 =
b00000000000000000000000000000000 <
09
0A
b111 C
#520
0!
03
#540
1!
13
b000000000000000000000000000110001001110000000000000000000000000000110010000000000000000000011000110011100000000000000000000000000100101100 E
b000000000000000000000000000110001001110000000000000000000000000000110010000000000000000000011000110011100000000000000000000000000100101100 2
#550
b110000000000000000000000000000000010100000000000000000000000000000000000000000000000000000000000000000000000000000000000000000000010100000000000000000000000000000000000000000000000000000000000000000000000000000000011000101101010000000000000000000000000011111010000000000000000000000000000000001000000000000000000000000000000000000010100000000000000000000000000000000000000000000000000000000000000000000 1
b110000000000000000000000000000000010100000000000000000000000000000000000000000000000000000000000000000000000000000000000000000000010100000000000000000000000000000000000000000000000000000000000000000000000000000000011000101101010000000000000000000000000011111010000000000000000000000000000000001000000000000000000000000000000000000010100000000000000000000000000000000000000000000000000000000000000000000 D
16
b000000101 5
1>
0?
b00000000000000000000000011111010 =
b00000000000000000110001011010100 <
19
1B
#560
0!
03
#580
1!
13
b100000010100000000000000000110001001110000000000000000000000000000110010000000000000000000011000101101010000000000000000000000000011111010 E
b100000010100000000000000000110001001110000000000000000000000000000110010000000000000000000011000101101010000000000000000000000000011111010 2
b110 C
0B
1A
#590
b000000000000000000000000000000000000000000000000000000000000000000000000000000000000000000000000000000000000000000000000000000000000000000000000000000000000000000000000000000000000000000000000000000000000000000000000000000000000000000000000000000000000000000000000000000000000000000000000000000000000000000000000000000000000000000000000000000000000000000000000000000000000000000000000000000000000000000 1
b000000000000000000000000000000000000000000000000000000000000000000000000000000000000000000000000000000000000000000000000000000000000000000000000000000000000000000000000000000000000000000000000000000000000000000000000000000000000000000000000000000000000000000000000000000000000000000000000000000000000000000000000000000000000000000000000000000000000000000000000000000000000000000000000000000000000000000 D
06
b000000000 5
0>
1?
b00000000000000000000000000000000 =
b00000000000000000000000000000000 <
09
b100 C
0A
b111 C
#600
0!
03
#620
1!
13
b000000000000000000000000000110001001110000000000000000000000000000110010000000000000000000011000101101010000000000000000000000000011111010 E
b000000000000000000000000000110001001110000000000000000000000000000110010000000000000000000011000101101010000000000000000000000000011111010 2
#630
b110000000000000000000000000000000010100000000000000000000000000000000000000000000000000000000000000000000000000000000000000000000011000000000000000000000000000000000000000000000000000000000000000000000000000000000011000111001110000000000000000000000000001100100000000000000000000000000000000001000000000000000000000000000000000000010100000000000000000000000000000000000000000000000000000000000000000000 1
b110000000000000000000000000000000010100000000000000000000000000000000000000000000000000000000000000000000000000000000000000000000011000000000000000000000000000000000000000000000000000000000000000000000000000000000011000111001110000000000000000000000000001100100000000000000000000000000000000001000000000000000000000000000000000000010100000000000000000000000000000000000000000000000000000000000000000000 D
16
b000000101 5
1>
0?
b00000000000000000000000001100100 =
b00000000000000000110001110011100 <
19
1B
b100 C
#640
0!
03
#660
1!
13
b100000010100000000000000000110001001110000000000000000000000000000110010000000000000000000011000101101010000000000000000000000000011111010 E
b100000010100000000000000000110001001110000000000000000000000000000110010000000000000000000011000101101010000000000000000000000000011111010 2
b000 C
0B
1A
#670
b000000000000000000000000000000000000000000000000000000000000000000000000000000000000000000000000000000000000000000000000000000000000000000000000000000000000000000000000000000000000000000000000000000000000000000000000000000000000000000000000000000000000000000000000000000000000000000000000000000000000000000000000000000000000000000000000000000000000000000000000000000000000000000000000000000000000000000 1
b000000000000000000000000000000000000000000000000000000000000000000000000000000000000000000000000000000000000000000000000000000000000000000000000000000000000000000000000000000000000000000000000000000000000000000000000000000000000000000000000000000000000000000000000000000000000000000000000000000000000000000000000000000000000000000000000000000000000000000000000000000000000000000000000000000000000000000 D
06
b000000000 5
0>
1?
b00000000000000000000000000000000 =
b00000000000000000000000000000000 <
09
0A
b111 C
#680
0!
03
#700
1!
13
b000000000000000000000000000110001001110000000000000000000000000000110010000000000000000000011000101101010000000000000000000000000011111010 E
b000000000000000000000000000110001001110000000000000000000000000000110010000000000000000000011000101101010000000000000000000000000011111010 2
#710
b00000000000000000110001011010100 (
b00000000000000000000000011111010 )
0*
b00000000000000000000000000000001 ,
b00000000000000000110001100111000 -
b00000000000000000000000100101100 .
b00000000000000000110001100111000 /
b00000000000000000000000100101100 0
b00000000000000000000000000000010 ,
b00000000000000000110001110011100 -
b00000000000000000000000001100100 .
b00000000000000000110001110011100 /
b00000000000000000000000001100100 0
b110000000000000000000000000000000010100000000000000000000000000000000000000000000000000000000000000000000000000000000000000000000011100000000000000000000000000000000000000000000000000000000000000000000000000000000011000100111000000000000000000000000000000110010000000000000000000000000000000000000000000000000000000000000000000000010100000000000000000000000000000000000000000000000000000000000000000000 1
b110000000000000000000000000000000010100000000000000000000000000000000000000000000000000000000000000000000000000000000000000000000011100000000000000000000000000000000000000000000000000000000000000000000000000000000011000100111000000000000000000000000000000110010000000000000000000000000000000000000000000000000000000000000000000000010100000000000000000000000000000000000000000000000000000000000000000000 D
16
b000000101 5
b00000000000000000000000000110010 =
b00000000000000000110001001110000 <
19
1B
b110 C
0B
1A
#720
0!
03
#740
1!
13
b100000010100000000000000000110001001110000000000000000000000000000111110100000000000000000011000101101010000000000000000000000000011111010 E
b100000010100000000000000000110001001110000000000000000000000000000111110100000000000000000011000101101010000000000000000000000000011111010 2
#750
b000000000000000000000000000000000000000000000000000000000000000000000000000000000000000000000000000000000000000000000000000000000000000000000000000000000000000000000000000000000000000000000000000000000000000000000000000000000000000000000000000000000000000000000000000000000000000000000000000000000000000000000000000000000000000000000000000000000000000000000000000000000000000000000000000000000000000000 1
b000000000000000000000000000000000000000000000000000000000000000000000000000000000000000000000000000000000000000000000000000000000000000000000000000000000000000000000000000000000000000000000000000000000000000000000000000000000000000000000000000000000000000000000000000000000000000000000000000000000000000000000000000000000000000000000000000000000000000000000000000000000000000000000000000000000000000000 D
06
b000000000 5
b00000000000000000000000000000000 =
b00000000000000000000000000000000 <
09
0A
b000 C
b111 C
#760
0!
03
#780
1!
13
b000000000000000000000000000110001001110000000000000000000000000000111110100000000000000000011000101101010000000000000000000000000011111010 E
b000000000000000000000000000110001001110000000000000000000000000000111110100000000000000000011000101101010000000000000000000000000011111010 2
#790
b00000000000000000000000011111010 '
b110100000000000000000000000000000010100000000000000000000000000000000000000000000000000000000000000000000000000000000000000000000001000000000000000000000000000000000000000000000000000000000000000000000000000000000000000000000000000000000000000000000000000000000000000000000000000000000000000000000000000000000000000000000000000000010100000000000000000110001001110000000000000000000000000000110010000010 1
b110100000000000000000000000000000010100000000000000000000000000000000000000000000000000000000000000000000000000000000000000000000001000000000000000000000000000000000000000000000000000000000000000000000000000000000000000000000000000000000000000000000000000000000000000000000000000000000000000000000000000000000000000000000000000000010100000000000000000110001001110000000000000000000000000000110010000010 D
b010 7
16
b000000101 5
b00000000000000000000000011001000 ;
b00000000000000000110001001110000 :
18
1@
b000 C
#800
0!
03
#820
1!
13
b100000010100000000000000000110001001110000000000000000000000000000001100100000000000000000011000101101010000000000000000000000000011111010 E
b100000010100000000000000000110001001110000000000000000000000000000001100100000000000000000011000101101010000000000000000000000000011111010 2
b100 C
#830
b000000000000000000000000000000000000000000000000000000000000000000000000000000000000000000000000000000000000000000000000000000000000000000000000000000000000000000000000000000000000000000000000000000000000000000000000000000000000000000000000000000000000000000000000000000000000000000000000000000000000000000000000000000000000000000000000000000000000000000000000000000000000000000000000000000000000000000 1
b000000000000000000000000000000000000000000000000000000000000000000000000000000000000000000000000000000000000000000000000000000000000000000000000000000000000000000000000000000000000000000000000000000000000000000000000000000000000000000000000000000000000000000000000000000000000000000000000000000000000000000000000000000000000000000000000000000000000000000000000000000000000000000000000000000000000000000 D
b000 7
06
b000000000 5
b00000000000000000000000000000000 ;
b00000000000000000000000000000000 :
08
0@
b111 C
#840
0!
03
#860
1!
13
b000000000000000000000000000110001001110000000000000000000000000000001100100000000000000000011000101101010000000000000000000000000011111010 E
b000000000000000000000000000110001001110000000000000000000000000000001100100000000000000000011000101101010000000000000000000000000011111010 2
#870
b00000000000000000000000000110010 '
b110100000000000000000000000000000010100000000000000000000000000000000000000000000000000000000000000000000000000000000000000000000011100000000000000000000000000000000000000000000000000000000000000000000000000000000000000000000000000000000000000000000000000000000000000000000000000000000000000000000000000000000000000000000000000000010100000000000000000110001001110000000000000000000000000000001100100010 1
b110100000000000000000000000000000010100000000000000000000000000000000000000000000000000000000000000000000000000000000000000000000011100000000000000000000000000000000000000000000000000000000000000000000000000000000000000000000000000000000000000000000000000000000000000000000000000000000000000000000000000000000000000000000000000000010100000000000000000110001001110000000000000000000000000000001100100010 D
b010 7
16
b000000101 5
b00000000000000000000000000110010 ;
b00000000000000000110001001110000 :
18
1@
b100 C
#880
0!
03
#900
1!
13
b100000010100000000000000000110001000001100000000000000000000000000100101100000000000000000011000101101010000000000000000000000000011111010 E
b100000010100000000000000000110001000001100000000000000000000000000100101100000000000000000011000101101010000000000000000000000000011111010 2
0@
#910
b000000000000000000000000000000000000000000000000000000000000000000000000000000000000000000000000000000000000000000000000000000000000000000000000000000000000000000000000000000000000000000000000000000000000000000000000000000000000000000000000000000000000000000000000000000000000000000000000000000000000000000000000000000000000000000000000000000000000000000000000000000000000000000000000000000000000000000 1
b000000000000000000000000000000000000000000000000000000000000000000000000000000000000000000000000000000000000000000000000000000000000000000000000000000000000000000000000000000000000000000000000000000000000000000000000000000000000000000000000000000000000000000000000000000000000000000000000000000000000000000000000000000000000000000000000000000000000000000000000000000000000000000000000000000000000000000 D
b000 7
06
b000000000 5
b00000000000000000000000000000000 ;
b00000000000000000000000000000000 :
08
b111 C
#920
0!
03
#940
1!
13
b000000000000000000000000000110001000001100000000000000000000000000100101100000000000000000011000101101010000000000000000000000000011111010 E
b000000000000000000000000000110001000001100000000000000000000000000100101100000000000000000011000101101010000000000000000000000000011111010 2
#950
b00000000000000000110001000001100 &
b00000000000000000000000010010110 '
1*
b00000000000000000000000000000001 ,
b00000000000000000110000110101000 -
b00000000000000000110000110101000 /
b00000000000000000000000000000010 ,
b00000000000000000000000000000000 -
b00000000000000000000000000000000 .
b00000000000000000000000000000000 /
b00000000000000000000000000000000 0
b110110000000000000000000000000000010100000000000000000000000000000000000000000000000000000000000000000000000000000000000000000000001100000000000000000000000000000000000000000000000000000000000000000000000000000000000000000000000000000000000000000000000001010000000000000000000000000000000000000000000000000000000000000000000000000010100000000000000000110001000001100000000000000000000000000100101100011 1
b110110000000000000000000000000000010100000000000000000000000000000000000000000000000000000000000000000000000000000000000000000000001100000000000000000000000000000000000000000000000000000000000000000000000000000000000000000000000000000000000000000000000001010000000000000000000000000000000000000000000000000000000000000000000000000010100000000000000000110001000001100000000000000000000000000100101100011 D
b011 7
16
b000000101 5
b00000000000000000000000001010000 ;
b00000000000000000110001000001100 :
18
1@
b100 C
#960
0!
03
#980
1!
13
b100000010100000000000000000110001000001100000000000000000000000000010001100000000000000000011000101101010000000000000000000000000011111010 E
b100000010100000000000000000110001000001100000000000000000000000000010001100000000000000000011000101101010000000000000000000000000011111010 2
b110 C
#990
b000000000000000000000000000000000000000000000000000000000000000000000000000000000000000000000000000000000000000000000000000000000000000000000000000000000000000000000000000000000000000000000000000000000000000000000000000000000000000000000000000000000000000000000000000000000000000000000000000000000000000000000000000000000000000000000000000000000000000000000000000000000000000000000000000000000000000000 1
b000000000000000000000000000000000000000000000000000000000000000000000000000000000000000000000000000000000000000000000000000000000000000000000000000000000000000000000000000000000000000000000000000000000000000000000000000000000000000000000000000000000000000000000000000000000000000000000000000000000000000000000000000000000000000000000000000000000000000000000000000000000000000000000000000000000000000000 D
b000 7
06
b000000000 5
b00000000000000000000000000000000 ;
b00000000000000000000000000000000 :
08
0@
b111 C
#1000
0!
03
#1020
1!
13
b000000000000000000000000000110001000001100000000000000000000000000010001100000000000000000011000101101010000000000000000000000000011111010 E
b000000000000000000000000000110001000001100000000000000000000000000010001100000000000000000011000101101010000000000000000000000000011111010 2
#1030
b00000000000000000000000001000110 '
b110110000000000000000000000000000010100000000000000000000000000000000000000000000000000000000000000000000000000000000000000000000001100000000000000000000000000000000000000000000000000000000000000000000000000000000000000000000000000000000000000000000000001000110000000000000000000000000000000000000000000000000000000000000000000000010100000000000000000110001000001100000000000000000000000000010001100011 1
b110110000000000000000000000000000010100000000000000000000000000000000000000000000000000000000000000000000000000000000000000000000001100000000000000000000000000000000000000000000000000000000000000000000000000000000000000000000000000000000000000000000000001000110000000000000000000000000000000000000000000000000000000000000000000000010100000000000000000110001000001100000000000000000000000000010001100011 D
b011 7
16
b000000101 5
b00000000000000000000000001000110 ;
b00000000000000000110001000001100 :
18
1@
b110 C
#1040
0!
03
#1060
1!
13
b100000010100000000000000000110000110101000000000000000000000000000011001000000000000000000011000101101010000000000000000000000000011111010 E
b100000010100000000000000000110000110101000000000000000000000000000011001000000000000000000011000101101010000000000000000000000000011111010 2
0@
#1070
b000000000000000000000000000000000000000000000000000000000000000000000000000000000000000000000000000000000000000000000000000000000000000000000000000000000000000000000000000000000000000000000000000000000000000000000000000000000000000000000000000000000000000000000000000000000000000000000000000000000000000000000000000000000000000000000000000000000000000000000000000000000000000000000000000000000000000000 1
b000000000000000000000000000000000000000000000000000000000000000000000000000000000000000000000000000000000000000000000000000000000000000000000000000000000000000000000000000000000000000000000000000000000000000000000000000000000000000000000000000000000000000000000000000000000000000000000000000000000000000000000000000000000000000000000000000000000000000000000000000000000000000000000000000000000000000000 D
b000 7
06
b000000000 5
b00000000000000000000000000000000 ;
b00000000000000000000000000000000 :
08
b111 C
#1080
0!
03
#1100
1!
13
b000000000000000000000000000110000110101000000000000000000000000000011001000000000000000000011000101101010000000000000000000000000011111010 E
b000000000000000000000000000110000110101000000000000000000000000000011001000000000000000000011000101101010000000000000000000000000011111010 2
#1110
b00000000000000000110000110101000 &
b00000000000000000000000001100100 '
b110010000000000000000000000000000010100000000000000000000000000000000000000000000000000000000000000000000000000000000000000000000000100000000000000000000000000000000000000000000000000000000000000000000000000000000011000101101010000000000000000000000000001010000000000000000000000000000000000000000000000000000000000000000000000000010100000000000000000110000110101000000000000000000000000000011001000001 1
b110010000000000000000000000000000010100000000000000000000000000000000000000000000000000000000000000000000000000000000000000000000000100000000000000000000000000000000000000000000000000000000000000000000000000000000011000101101010000000000000000000000000001010000000000000000000000000000000000000000000000000000000000000000000000000010100000000000000000110000110101000000000000000000000000000011001000001 D
b001 7
16
b000000101 5
b00000000000000000000000001010000 =
b00000000000000000110001011010100 <
b00000000000000000000000001100100 ;
b00000000000000000110000110101000 :
19
18
1B
1@
#1120
0!
03
#1140
1!
13
b100000010100000000000000000110001011010100000000000000000000000000010100000000000000000000011000101101010000000000000000000000000011111010 E
b100000010100000000000000000110001011010100000000000000000000000000010100000000000000000000011000101101010000000000000000000000000011111010 2
0@
b110 C
0B
1A
#1150
b000000000000000000000000000000000000000000000000000000000000000000000000000000000000000000000000000000000000000000000000000000000000000000000000000000000000000000000000000000000000000000000000000000000000000000000000000000000000000000000000000000000000000000000000000000000000000000000000000000000000000000000000000000000000000000000000000000000000000000000000000000000000000000000000000000000000000000 1
b000000000000000000000000000000000000000000000000000000000000000000000000000000000000000000000000000000000000000000000000000000000000000000000000000000000000000000000000000000000000000000000000000000000000000000000000000000000000000000000000000000000000000000000000000000000000000000000000000000000000000000000000000000000000000000000000000000000000000000000000000000000000000000000000000000000000000000 D
b000 7
06
b000000000 5
b00000000000000000000000000000000 =
b00000000000000000000000000000000 <
b00000000000000000000000000000000 ;
b00000000000000000000000000000000 :
09
08
0A
b111 C
#1160
0!
03
#1180
1!
13
b000000000000000000000000000110001011010100000000000000000000000000010100000000000000000000011000101101010000000000000000000000000011111010 E
b000000000000000000000000000110001011010100000000000000000000000000010100000000000000000000011000101101010000000000000000000000000011111010 2
#1190
b00000000000000000110001011010100 &
b00000000000000000000000001010000 '
b00000000000000000000000000000001 ,
b111000000000000000000000000000000010100000000000000000000000000000000000000000000000000000000000000000000000000000000000000000000010100000000000000000000000000000000000000000000000000000000111111110000000000000000011000101010001000000000000000000000000011001000000000000000000000000000000000000000000000000000000000000000000000000010100000000000000000110001011010100000000000000000000000000111110101100 1
b111000000000000000000000000000000010100000000000000000000000000000000000000000000000000000000000000000000000000000000000000000000010100000000000000000000000000000000000000000000000000000000111111110000000000000000011000101010001000000000000000000000000011001000000000000000000000000000000000000000000000000000000000000000000000000010100000000000000000110001011010100000000000000000000000000111110101100 D
b100 7
16
b000000101 5
1>
0?
b00000000000000000000000011001000 =
b00000000000000000110001010100010 <
b00000000000000000000000011111010 ;
b00000000000000000110001011010100 :
19
18
1B
1@
#1200
0!
03
#1220
1!
13
b100000010100000000000000000110001011010100000000000000000000000000010100000000000000000000011000101010001000000000000000000000000011001000 E
b100000010100000000000000000110001011010100000000000000000000000000010100000000000000000000011000101010001000000000000000000000000011001000 2
0@
b110 C
0B
1A
